﻿Enemy 001
 Name "Slime Girl"
 Notes "<職業Exp 1>\r\n<逃走レベル 1>\r\n<種族:スライム>\r\n<誘惑時使用スキル:3502>\r\n<スティールリスト 1,I,1,2>\r\n<スティールリスト 1,W,657,8>\r\n<スティールリスト 2,I,322,2>\r\n<スティールリスト 3,I,160,2>\r\n<仲間ID:1053>"
Enemy 002
 Name "Bunny Slime"
 Notes "<職業Exp 5>\r\n<逃走レベル 2>\r\n<種族:スライム>\r\n<誘惑時使用スキル:3502>\r\n<図鑑名称:Bunny Slime（Boss）>\r\n<仲間ID:1054>\r\n<戦闘回想不可>\r\n"
Enemy 003
 Name "Bunny Slime"
 Notes "<職業Exp 1>\r\n<逃走レベル 2>\r\n<種族:スライム>\r\n<誘惑時使用スキル:3502>\r\n<スティールリスト 1,I,1,2>\r\n<スティールリスト 1,A,1175,8>\r\n<スティールリスト 2,I,310,2>\r\n<スティールリスト 3,I,160,2>\r\n"
Enemy 004
 Name "Slug Girl"
 Notes "<職業Exp 1>\r\n<逃走レベル 2>\r\n<種族:陸棲種>\r\n<誘惑時使用スキル:3512>\r\n<スティールリスト 1,I,13,2>\r\n<スティールリスト 1,A,1026,8>\r\n<スティールリスト 2,I,309,2>\r\n<スティールリスト 3,I,161,2>\r\n<スティールリスト 4,A,1801,8>\r\n"
Enemy 005
 Name "Imp"
 Notes "<職業Exp 1>\r\n<逃走レベル 2>\r\n<種族:淫魔>\r\n<誘惑時使用スキル:3520>\r\n<スティールリスト 1,I,1,2>\r\n<スティールリスト 1,A,1171,8>\r\n<スティールリスト 2,I,357,2>\r\n<スティールリスト 3,I,162,2>\r\n<スティールリスト 4,A,1802,8>\r\n"
Enemy 006
 Name "Mandragora"
 Notes "<職業Exp 1>\r\n<逃走レベル 3>\r\n<種族:植物>\r\n<誘惑時使用スキル:3527>\r\n<スティールリスト 1,I,1,2>\r\n<スティールリスト 1,I,163,8>\r\n<スティールリスト 2,I,307,2>\r\n<スティールリスト 3,I,163,2>\r\n"
Enemy 007
 Name "Dog Girl"
 Notes "<職業Exp 1>\r\n<逃走レベル 3>\r\n<種族:魔獣>\r\n<誘惑時使用スキル:3535>\r\n<スティールリスト 1,I,442,2>\r\n<スティールリスト 1,I,11,4>\r\n<スティールリスト 2,I,442,2>\r\n<スティールリスト 3,I,164,2>\r\n<スティールリスト 4,A,1805,8>\r\n"
Enemy 008
 Name "Earthworm Girl"
 Notes "<職業Exp 1>\r\n<逃走レベル 4>\r\n<種族:陸棲種>\r\n<誘惑時使用スキル:3511>\r\n<スティールリスト 1,I,13,2>\r\n<スティールリスト 1,I,67,4>\r\n<スティールリスト 2,I,301,2>\r\n<スティールリスト 3,I,161,2>\r\n"
Enemy 009
 Name "Goblin Girl"
 Notes "<職業Exp 5>\r\n<逃走レベル 4>\r\n<種族:亜人>\r\n<誘惑時使用スキル:3546>\r\n<スティールリスト 4,A,1806,8>\r\n<仲間ID:1062>\r\n<戦闘回想不可>"
Enemy 010
 Name "Tiny Lamia"
 Notes "<職業Exp 5>\r\n<逃走レベル 4>\r\n<種族:ラミア>\r\n<誘惑時使用スキル:3555>\r\n<仲間ID:1064>\r\n<戦闘回想不可>\r\n"
Enemy 011
 Name "Vampire Girl"
 Notes "<職業Exp 5>\r\n<逃走レベル 4>\r\n<種族:吸血鬼>\r\n<誘惑時使用スキル:3563>\r\n<スティールリスト 4,A,1807,8>\r\n<仲間ID:1066>\r\n<戦闘回想不可>"
Enemy 012
 Name "Dragon Pup"
 Notes "<職業Exp 5>\r\n<逃走レベル 4>\r\n<種族:竜>\r\n<誘惑時使用スキル:4228>\r\n<スティールリスト 4,A,1808,8>\r\n<仲間ID:1068>\r\n<戦闘回想不可>\r\n"
Enemy 013
 Name "Rat Girl"
 Notes "<職業Exp 1>\r\n<逃走レベル 4>\r\n<種族:魔獣>\r\n<誘惑時使用スキル:3535>\r\n<スティールリスト 1,I,1,2>\r\n<スティールリスト 1,A,1036,8>\r\n<スティールリスト 2,I,341,2>\r\n<スティールリスト 3,I,164,2>\r\n<スティールリスト 4,A,1809,8>\r\n"
Enemy 014
 Name "Wolf Girl"
 Notes "<職業Exp 1>\r\n<逃走レベル 4>\r\n<種族:魔獣>\r\n<誘惑時使用スキル:3535>\r\n<スティールリスト 1,I,7,2>\r\n<スティールリスト 1,I,11,4>\r\n<スティールリスト 2,I,329,2>\r\n<スティールリスト 3,I,164,2>\r\n"
Enemy 015
 Name "Phoenix Girl"
 Notes "<職業Exp 7>\r\n<逃走レベル 5>\r\n<種族:鳥>\r\n<誘惑時使用スキル:3574>\r\n<スティールリスト 4,A,1810,8>\r\n<仲間ID:1072>\r\n<捕食無効>\r\n<戦闘回想不可>"
Enemy 016
 Name "Leech Girl"
 Notes "<職業Exp 1>\r\n<逃走レベル 5>\r\n<種族:陸棲種>\r\n<誘惑時使用スキル:3576>\r\n<スティールリスト 1,I,13,2>\r\n<スティールリスト 1,A,1041,8>\r\n<スティールリスト 2,I,337,2>\r\n<スティールリスト 3,I,165,2>\r\n"
Enemy 017
 Name "Rabbit Girl"
 Notes "<職業Exp 1>\r\n<逃走レベル 5>\r\n<種族:魔獣>\r\n<誘惑時使用スキル:3585>\r\n<スティールリスト 1,I,1,2>\r\n<スティールリスト 1,W,550,8>\r\n<スティールリスト 2,I,310,2>\r\n<スティールリスト 3,I,51,2>\r\n<スティールリスト 4,A,1811,8>\r\n"
Enemy 018
 Name "Sheep Girl"
 Notes "<職業Exp 1>\r\n<逃走レベル 5>\r\n<種族:魔獣>\r\n<誘惑時使用スキル:3592>\r\n<スティールリスト 1,I,433,4>\r\n<スティールリスト 1,A,1147,8>\r\n<スティールリスト 2,I,431,2>\r\n<スティールリスト 3,I,55,2>\r\n<スティールリスト 4,A,1812,8>\r\n"
Enemy 019
 Name "Sully"
 Notes "<職業Exp 1>\r\n<逃走レベル 6>\r\n<種族:アポトーシス>\r\n<誘惑時使用スキル:3786>\r\n<スティールリスト 1,I,55,4>\r\n<スティールリスト 1,A,1006,8>\r\n<スティールリスト 3,I,166,2>\r\n"
Enemy 020
 Name "Jaide"
 Notes "<職業Exp 1>\r\n<逃走レベル 6>\r\n<種族:アポトーシス>\r\n<誘惑時使用スキル:3497>\r\n<スティールリスト 1,I,59,4>\r\n<スティールリスト 1,A,1011,8>\r\n<スティールリスト 3,I,166,2>\r\n"
Enemy 021
 Name "Shesta"
 Notes "<職業Exp 2>\r\n<逃走レベル 6>\r\n<種族:アポトーシス>\r\n<誘惑時使用スキル:3611>\r\n<スティールリスト 1,I,166,4>\r\n<スティールリスト 1,A,148,8>\r\n<スティールリスト 3,I,166,2>\r\n<スティールリスト 4,A,1813,8>\r\n"
Enemy 022
 Name "???"
 Notes "<職業Exp 9>\r\n<逃走レベル 6>\r\n<種族:アポトーシス>\r\n<誘惑時使用スキル:3614>\r\n<図鑑名称:ヌルコ>\r\n<仲間ID:1079>\r\n<戦闘回想不可>"
Enemy 023
 Name "Orc Girl"
 Notes "<職業Exp 1>\r\n<逃走レベル 7>\r\n<種族:魔獣>\r\n<誘惑時使用スキル:3622>\r\n<スティールリスト 1,I,23,2>\r\n<スティールリスト 1,A,1016,8>\r\n<スティールリスト 2,I,331,2>\r\n<スティールリスト 3,I,67,2>\r\n"
Enemy 024
 Name "Bee Girl"
 Notes "<職業Exp 1>\r\n<逃走レベル 7>\r\n<種族:虫>\r\n<誘惑時使用スキル:3627>\r\n<スティールリスト 1,I,14,2>\r\n<スティールリスト 1,I,167,4>\r\n<スティールリスト 2,I,436,2>\r\n<スティールリスト 3,I,167,2>\r\n"
Enemy 025
 Name "Sparrow Girl"
 Notes "<職業Exp 1>\r\n<逃走レベル 7>\r\n<種族:鳥>\r\n<誘惑時使用スキル:3574>\r\n<スティールリスト 1,I,1,2>\r\n<スティールリスト 1,I,23,4>\r\n<スティールリスト 2,I,360,2>\r\n<スティールリスト 3,I,168,2>\r\n<スティールリスト 4,A,1814,8>\r\n"
Enemy 026
 Name "Harpy"
 Notes "<職業Exp 3>\r\n<逃走レベル 7>\r\n<種族:鳥>\r\n<誘惑時使用スキル:3636>\r\n<スティールリスト 1,I,23,2>\r\n<スティールリスト 1,I,63,4>\r\n<スティールリスト 2,I,361,2>\r\n<スティールリスト 3,I,168,2>\r\n"
Enemy 027
 Name "Harpy Sisters"
 Notes "<職業Exp 3>\r\n<逃走レベル 7>\r\n<種族:鳥>\r\n<誘惑時使用スキル:3574>\r\n<スティールリスト 1,I,23,4>\r\n<スティールリスト 1,I,168,4>\r\n<スティールリスト 2,I,305,2>\r\n<スティールリスト 3,I,168,2>\r\n"
Enemy 028
 Name "Queen Harpy"
 Notes "<職業Exp 10>\r\n<逃走レベル 7>\r\n<種族:鳥>\r\n<誘惑時使用スキル:3649>\r\n<捕食無効>\r\n<戦闘回想不可>"
Enemy 029
 Name "High Slug"
 Notes "<職業Exp 2>\r\n<逃走レベル 8>\r\n<種族:陸棲種>\r\n<誘惑時使用スキル:3512>\r\n<スティールリスト 1,I,13,2>\r\n<スティールリスト 1,A,1145,8>\r\n<スティールリスト 2,I,309,2>\r\n<スティールリスト 3,I,165,2>\r\n<スティールリスト 4,A,1815,8>\r\n"
Enemy 030
 Name "Slug Nun"
 Notes "<職業Exp 2>\r\n<逃走レベル 8>\r\n<種族:陸棲種>\r\n<誘惑時使用スキル:3661>\r\n<スティールリスト 1,I,13,2>\r\n<スティールリスト 1,A,1031,8>\r\n<スティールリスト 2,I,309,2>\r\n<スティールリスト 3,I,165,2>\r\n<スティールリスト 4,A,1816,8>\r\n"
Enemy 031
 Name "Sluggy Stars"
 Notes "<職業Exp 10>\r\n<逃走レベル 8>\r\n<種族:陸棲種>\r\n<誘惑時使用スキル:3658>\r\n<仲間ID:1087>\r\n<戦闘回想不可>"
Enemy 032
 Name "Jack O Lantern"
 Notes "<職業Exp 2>\r\n<逃走レベル 9>\r\n<種族:妖精>\r\n<誘惑時使用スキル:4140>\r\n<スティールリスト 1,I,447,2>\r\n<スティールリスト 1,A,234,8>\r\n<スティールリスト 2,I,435,2>\r\n<スティールリスト 3,I,169,2>\r\n<スティールリスト 4,A,1817,8>\r\n"
Enemy 033
 Name "Roper Girl"
 Notes "<職業Exp 2>\r\n<逃走レベル 9>\r\n<種族:陸棲種>\r\n<誘惑時使用スキル:3614>\r\n<スティールリスト 1,I,1,2>\r\n<スティールリスト 1,A,1061,8>\r\n<スティールリスト 2,I,312,2>\r\n<スティールリスト 3,I,161,2>\r\n"
Enemy 034
 Name "Meda"
 Notes "<職業Exp 2>\r\n<逃走レベル 9>\r\n<種族:虫>\r\n<誘惑時使用スキル:3614>\r\n<スティールリスト 1,I,14,2>\r\n<スティールリスト 1,I,11,4>\r\n<スティールリスト 2,I,432,2>\r\n<スティールリスト 3,I,59,2>\r\n"
Enemy 035
 Name "Candle Girl"
 Notes "<職業Exp 2>\r\n<逃走レベル 10>\r\n<種族:ゴースト>\r\n<誘惑時使用スキル:3679>\r\n<スティールリスト 1,I,1,2>\r\n<スティールリスト 1,I,51,4>\r\n<スティールリスト 2,I,338,2>\r\n<スティールリスト 3,I,51,2>\r\n"
Enemy 036
 Name "Eater"
 Notes "<職業Exp 2>\r\n<逃走レベル 11>\r\n<種族:アポトーシス>\r\n<誘惑時使用スキル:3685>\r\n<スティールリスト 1,I,1,2>\r\n<スティールリスト 1,A,1113,8>\r\n<スティールリスト 3,I,172,2>\r\n"
Enemy 037
 Name "Riot"
 Notes "<職業Exp 2>\r\n<逃走レベル 11>\r\n<種族:アポトーシス>\r\n<誘惑時使用スキル:3535>\r\n<スティールリスト 1,I,7,2>\r\n<スティールリスト 1,A,1016,8>\r\n<スティールリスト 3,I,166,2>\r\n"
Enemy 038
 Name "Luxuru"
 Notes "<職業Exp 2>\r\n<逃走レベル 11>\r\n<種族:アポトーシス>\r\n<誘惑時使用スキル:3496>\r\n<スティールリスト 1,I,11,2>\r\n<スティールリスト 1,I,79,4>\r\n<スティールリスト 3,I,166,2>\r\n"
Enemy 039
 Name "Dark Elf Swordsman"
 Notes "<職業Exp 2>\r\n<逃走レベル 12>\r\n<種族:エルフ>\r\n<誘惑時使用スキル:3706>\r\n<スティールリスト 1,I,1,2>\r\n<スティールリスト 1,A,1011,8>\r\n<スティールリスト 2,I,343,2>\r\n<スティールリスト 3,I,170,2>\r\n<スティールリスト 4,A,1818,8>\r\n<図鑑名称:ダークエルフ（剣）>\r\n"
Enemy 040
 Name "Dark Elf Mage"
 Notes "<職業Exp 2>\r\n<逃走レベル 12>\r\n<種族:エルフ>\r\n<誘惑時使用スキル:3614>\r\n<スティールリスト 1,I,15,2>\r\n<スティールリスト 1,A,1100,8>\r\n<スティールリスト 2,I,331,2>\r\n<スティールリスト 3,I,170,2>\r\n<スティールリスト 4,A,1819,8>\r\n<図鑑名称:ダークエルフ（召喚）>\r\n"
Enemy 041
 Name "Fairy"
 Notes "<職業Exp 2>\r\n<逃走レベル 12>\r\n<種族:妖精>\r\n<誘惑時使用スキル:3716>\r\n<スティールリスト 1,I,1,1>\r\n<スティールリスト 1,A,1006,8>\r\n<スティールリスト 2,I,434,2>\r\n<スティールリスト 3,I,169,2>\r\n<スティールリスト 4,A,1820,8>"
Enemy 042
 Name "Mini Crab Girl"
 Notes "<職業Exp 2>\r\n<逃走レベル 12>\r\n<種族:海棲種>\r\n<誘惑時使用スキル:3719>\r\n<スティールリスト 1,I,1,2>\r\n<スティールリスト 1,I,71,4>\r\n<スティールリスト 2,I,335,2>\r\n<スティールリスト 3,I,171,2>\r\n"
Enemy 043
 Name "Catfish Girl"
 Notes "<職業Exp 2>\r\n<逃走レベル 12>\r\n<種族:人魚>\r\n<誘惑時使用スキル:3511>\r\n<スティールリスト 1,I,7,2>\r\n<スティールリスト 1,I,59,4>\r\n<スティールリスト 2,I,328,2>\r\n<スティールリスト 3,I,165,2>\r\n"
Enemy 044
 Name "Rafflesia Girl"
 Notes "<職業Exp 2>\r\n<逃走レベル 13>\r\n<種族:植物>\r\n<誘惑時使用スキル:3726>\r\n<スティールリスト 1,I,1,2>\r\n<スティールリスト 1,A,1721,8>\r\n<スティールリスト 2,I,321,2>\r\n<スティールリスト 3,I,163,2>\r\n"
Enemy 045
 Name "Centaur"
 Notes "<職業Exp 2>\r\n<逃走レベル 13>\r\n<種族:魔獣>\r\n<誘惑時使用スキル:3735>\r\n<スティールリスト 1,I,173,2>\r\n<スティールリスト 1,A,1730,8>\r\n<スティールリスト 2,I,310,2>\r\n<スティールリスト 3,I,173,2>\r\n"
Enemy 046
 Name "Kitsune"
 Notes "<職業Exp 2>\r\n<逃走レベル 13>\r\n<種族:妖狐>\r\n<誘惑時使用スキル:3740>\r\n<スティールリスト 1,I,174,2>\r\n<スティールリスト 1,I,67,4>\r\n<スティールリスト 2,I,370,2>\r\n<スティールリスト 3,I,174,2>\r\n<スティールリスト 4,A,1821,8>\r\n"
Enemy 047
 Name "Kamuro"
 Notes "<職業Exp 2>\r\n<逃走レベル 13>\r\n<種族:妖狐>\r\n<誘惑時使用スキル:3740>\r\n<スティールリスト 1,I,1,2>\r\n<スティールリスト 1,A,1061,8>\r\n<スティールリスト 2,I,333,2>\r\n<スティールリスト 3,I,174,2>\r\n<スティールリスト 4,A,1822,8>\r\n"
Enemy 048
 Name "Spider Girl"
 Notes "<職業Exp 4>\r\n<逃走レベル 13>\r\n<種族:虫>\r\n<誘惑時使用スキル:3748>\r\n<スティールリスト 1,I,13,2>\r\n<スティールリスト 1,A,163,8>\r\n<スティールリスト 2,I,432,2>\r\n<スティールリスト 3,I,175,2>\r\n"
Enemy 049
 Name "Mimic"
 Notes "<職業Exp 15>\r\n<逃走レベル 17>\r\n<種族:ゴースト>\r\n<誘惑時使用スキル:3655>\r\n<スティールリスト 1,I,11,2>\r\n<スティールリスト 1,I,4,32>\r\n<スティールリスト 2,I,359,2>\r\n<スティールリスト 3,I,161,2>\r\n<スティールリスト 4,A,1823,8>\r\n"
Enemy 050
 Name "Nanabi"
 Notes "<職業Exp 20>\r\n<逃走レベル 30>\r\n<種族:妖狐>\r\n<誘惑時使用スキル:3755>\r\n<仲間ID:1106>\r\n<捕食無効>\r\n<戦闘回想不可>"
Enemy 051
 Name "Morrigan"
 Notes "<職業Exp 20>\r\n<逃走レベル 14>\r\n<種族:淫魔>\r\n<誘惑時使用スキル:3765>\r\n<スティールリスト 4,A,1824,8>\r\n<捕食無効>\r\n<戦闘回想不可>"
Enemy 052
 Name "Sea Cucumber Girl"
 Notes "<職業Exp 3>\r\n<逃走レベル 14>\r\n<種族:海棲種>\r\n<誘惑時使用スキル:3495>\r\n<スティールリスト 1,I,2,2>\r\n<スティールリスト 1,I,71,4>\r\n<スティールリスト 2,I,322,2>\r\n<スティールリスト 3,I,171,2>\r\n"
Enemy 053
 Name "Shellfish Girl"
 Notes "<職業Exp 3>\r\n<逃走レベル 14>\r\n<種族:海棲種>\r\n<誘惑時使用スキル:3778>\r\n<スティールリスト 1,I,2,2>\r\n<スティールリスト 1,I,27,32>\r\n<スティールリスト 2,I,389,2>\r\n<スティールリスト 3,I,176,3>\r\n"
Enemy 054
 Name "Crab Girl"
 Notes "<職業Exp 3>\r\n<逃走レベル 14>\r\n<種族:海棲種>\r\n<誘惑時使用スキル:3786>\r\n<スティールリスト 1,I,17,2>\r\n<スティールリスト 1,A,1558,8>\r\n<スティールリスト 2,I,326,2>\r\n<スティールリスト 3,I,171,2>\r\n"
Enemy 055
 Name "Slime Bess"
 Notes "<職業Exp 3>\r\n<逃走レベル 15>\r\n<種族:スライム>\r\n<誘惑時使用スキル:3793>\r\n<スティールリスト 1,I,2,2>\r\n<スティールリスト 1,A,1375,8>\r\n<スティールリスト 2,I,329,2>\r\n<スティールリスト 3,I,177,3>\r\n"
Enemy 056
 Name "Watermelon Girl"
 Notes "<職業Exp 3>\r\n<逃走レベル 15>\r\n<種族:植物>\r\n<誘惑時使用スキル:3800>\r\n<スティールリスト 1,I,163,2>\r\n<スティールリスト 1,W,8,8>\r\n<スティールリスト 2,I,304,2>\r\n<スティールリスト 3,I,163,2>\r\n"
Enemy 057
 Name "Pitcher Plant Girl"
 Notes "<職業Exp 3>\r\n<逃走レベル 15>\r\n<種族:植物>\r\n<誘惑時使用スキル:3685>\r\n<スティールリスト 1,I,2,2>\r\n<スティールリスト 1,A,1576,8>\r\n<スティールリスト 2,I,337,2>\r\n<スティールリスト 3,I,163,2>\r\n"
Enemy 058
 Name "Lamia"
 Notes "<職業Exp 6>\r\n<逃走レベル 15>\r\n<種族:ラミア>\r\n<誘惑時使用スキル:3802>\r\n<スティールリスト 1,I,16,2>\r\n<スティールリスト 1,A,1381,8>\r\n<スティールリスト 2,I,376,2>\r\n<スティールリスト 3,I,178,3>\r\n"
Enemy 059
 Name "Seaweed Girl"
 Notes "<職業Exp 3>\r\n<逃走レベル 14>\r\n<種族:植物>\r\n<誘惑時使用スキル:3814>\r\n<スティールリスト 1,I,2,2>\r\n<スティールリスト 1,A,1142,8>\r\n<スティールリスト 2,I,335,2>\r\n<スティールリスト 3,I,71,2>\r\n"
Enemy 060
 Name "Jellyfish Girl"
 Notes "<職業Exp 3>\r\n<逃走レベル 14>\r\n<種族:海棲種>\r\n<誘惑時使用スキル:3614>\r\n<スティールリスト 1,I,17,2>\r\n<スティールリスト 1,A,1115,8>\r\n<スティールリスト 2,I,322,2>\r\n<スティールリスト 3,I,179,3>\r\n"
Enemy 061
 Name "Sea Anemone Girl"
 Notes "<職業Exp 6>\r\n<逃走レベル 14>\r\n<種族:海棲種>\r\n<誘惑時使用スキル:3614>\r\n<スティールリスト 1,I,13,2>\r\n<スティールリスト 1,A,1548,8>\r\n<スティールリスト 2,I,322,2>\r\n<スティールリスト 3,I,179,3>\r\n"
Enemy 062
 Name "Anglerfish Girl"
 Notes "<職業Exp 3>\r\n<逃走レベル 14>\r\n<種族:人魚>\r\n<誘惑時使用スキル:3494>\r\n<スティールリスト 1,I,14,2>\r\n<スティールリスト 1,W,408,8>\r\n<スティールリスト 2,I,327,2>\r\n<スティールリスト 3,I,71,2>\r\n"
Enemy 063
 Name "Meia"
 Notes "<職業Exp 22>\r\n<逃走レベル 15>\r\n<種族:人魚>\r\n<誘惑時使用スキル:3843>\r\n<仲間ID:1118>\r\n<戦闘回想不可>"
Enemy 064
 Name "Page 17"
 Notes "<職業Exp 3>\r\n<逃走レベル 15>\r\n<種族:ゴースト>\r\n<誘惑時使用スキル:3846>\r\n<スティールリスト 1,I,17,2>\r\n<スティールリスト 1,A,1007,8>\r\n<スティールリスト 2,I,314,2>\r\n<スティールリスト 3,I,180,3>\r\n"
Enemy 065
 Name "Page 257"
 Notes "<職業Exp 3>\r\n<逃走レベル 15>\r\n<種族:ゴースト>\r\n<誘惑時使用スキル:4140>\r\n<スティールリスト 1,I,15,2>\r\n<スティールリスト 1,A,1552,8>\r\n<スティールリスト 2,I,418,2>\r\n<スティールリスト 3,I,180,3>\r\n<スティールリスト 4,A,1825,8>\r\n"
Enemy 066
 Name "Page 65537"
 Notes "<職業Exp 25>\r\n<逃走レベル 15>\r\n<種族:ゴースト>\r\n<誘惑時使用スキル:3614>\r\n<スティールリスト 4,A,1826,8>\r\n<仲間ID:1121>\r\n<捕食無効>\r\n<戦闘回想不可>"
Enemy 067
 Name "Sister Lamia"
 Notes "<職業Exp 3>\r\n<逃走レベル 15>\r\n<種族:ラミア>\r\n<誘惑時使用スキル:3869>\r\n<スティールリスト 1,I,19,2>\r\n<スティールリスト 1,W,59,16>\r\n<スティールリスト 2,I,317,2>\r\n<スティールリスト 3,I,178,3>\r\n"
Enemy 068
 Name "Succubus Nun"
 Notes "<職業Exp 3>\r\n<逃走レベル 15>\r\n<種族:淫魔>\r\n<誘惑時使用スキル:3873>\r\n<スティールリスト 1,I,4,4>\r\n<スティールリスト 1,A,1315,8>\r\n<スティールリスト 2,I,317,2>\r\n<スティールリスト 3,I,181,3>\r\n<スティールリスト 4,A,1827,8>\r\n"
Enemy 069
 Name "Anteater Girl"
 Notes "<職業Exp 3>\r\n<逃走レベル 15>\r\n<種族:魔獣>\r\n<誘惑時使用スキル:3878>\r\n<スティールリスト 1,I,2,2>\r\n<スティールリスト 1,W,294,8>\r\n<スティールリスト 2,I,336,2>\r\n<スティールリスト 3,I,182,3>\r\n<スティールリスト 4,A,1828,8>\r\n"
Enemy 070
 Name "Grizzly Bear Girl"
 Notes "<職業Exp 3>\r\n<逃走レベル 15>\r\n<種族:魔獣>\r\n<誘惑時使用スキル:3535>\r\n<スティールリスト 1,I,7,2>\r\n<スティールリスト 1,A,1378,8>\r\n<スティールリスト 2,I,329,2>\r\n<スティールリスト 3,I,182,3>\r\n"
Enemy 071
 Name "Experiment XX-7"
 Notes "<職業Exp 3>\r\n<逃走レベル 16>\r\n<種族:ロイド>\r\n<誘惑時使用スキル:3892>\r\n<スティールリスト 1,I,7,2>\r\n<スティールリスト 1,A,1042,8>\r\n<スティールリスト 2,I,339,2>\r\n<スティールリスト 3,I,183,3>\r\n"
Enemy 072
 Name "Little Bug"
 Notes "<職業Exp 3>\r\n<逃走レベル 16>\r\n<種族:キメラ>\r\n<誘惑時使用スキル:3896>\r\n<スティールリスト 1,I,2,2>\r\n<スティールリスト 1,I,30,32>\r\n<スティールリスト 2,I,301,2>\r\n<スティールリスト 3,I,184,3>\r\n"
Enemy 073
 Name "Canceroid"
 Notes "<職業Exp 6>\r\n<逃走レベル 16>\r\n<種族:ロイド>\r\n<誘惑時使用スキル:3493>\r\n<スティールリスト 1,I,20,2>\r\n<スティールリスト 1,A,1022,8>\r\n<スティールリスト 2,I,326,2>\r\n<スティールリスト 3,I,183,3>\r\n"
Enemy 074
 Name "Brynhildr"
 Notes "<職業Exp 28>\r\n<逃走レベル 17>\r\n<種族:ロイド>\r\n<誘惑時使用スキル:4141>\r\n<仲間ID:1129>\r\n<捕食無効>\r\n<戦闘回想不可>"
Enemy 075
 Name "Ghost Girl"
 Notes "<職業Exp 3>\r\n<逃走レベル 17>\r\n<種族:ゴースト>\r\n<誘惑時使用スキル:3913>\r\n<スティールリスト 1,I,4,4>\r\n<スティールリスト 1,A,70,16>\r\n<スティールリスト 2,I,311,2>\r\n<スティールリスト 3,I,185,3>\r\n<スティールリスト 4,A,1829,8>\r\n"
Enemy 076
 Name "Cursed Doll"
 Notes "<職業Exp 3>\r\n<逃走レベル 17>\r\n<種族:ドール>\r\n<誘惑時使用スキル:3920>\r\n<スティールリスト 1,I,18,2>\r\n<スティールリスト 1,W,446,16>\r\n<スティールリスト 2,I,435,2>\r\n<スティールリスト 3,I,185,3>\r\n<スティールリスト 4,A,1830,8>\r\n"
Enemy 077
 Name "Zombie Swordsman"
 Notes "<職業Exp 3>\r\n<逃走レベル 17>\r\n<種族:ゾンビ>\r\n<誘惑時使用スキル:3933>\r\n<スティールリスト 1,I,2,2>\r\n<スティールリスト 1,A,3,4>\r\n<スティールリスト 2,I,432,2>\r\n<スティールリスト 3,I,186,3>\r\n<スティールリスト 4,A,1831,8>\r\n<オートステート 19>"
Enemy 078
 Name "Zombie Girls"
 Notes "<職業Exp 3>\r\n<逃走レベル 17>\r\n<種族:ゾンビ>\r\n<誘惑時使用スキル:3933>\r\n<スティールリスト 1,I,16,2>\r\n<スティールリスト 1,A,1556,8>\r\n<スティールリスト 2,I,432,2>\r\n<スティールリスト 3,I,186,3>\r\n<スティールリスト 4,A,1832,8>\r\n<図鑑名称:ゾンビ娘Ａ>\r\n<オートステート 19>"
Enemy 079
 Name "Zombie Girls"
 Notes "<職業Exp 3>\r\n<逃走レベル 17>\r\n<種族:ゾンビ>\r\n<誘惑時使用スキル:3933>\r\n<スティールリスト 1,I,13,2>\r\n<スティールリスト 1,A,1167,8>\r\n<スティールリスト 2,I,432,2>\r\n<スティールリスト 3,I,186,3>\r\n<スティールリスト 4,A,1833,8>\r\n<図鑑名称:ゾンビ娘Ｂ>\r\n<オートステート 19>\r\n<仲間ID:1133>"
Enemy 080
 Name "Zombie Girls"
 Notes "<職業Exp 3>\r\n<逃走レベル 17>\r\n<種族:ゾンビ>\r\n<誘惑時使用スキル:3933>\r\n<スティールリスト 1,I,17,2>\r\n<スティールリスト 1,A,1002,8>\r\n<スティールリスト 2,I,432,2>\r\n<スティールリスト 3,I,186,3>\r\n<スティールリスト 4,A,1834,8>\r\n<図鑑名称:ゾンビ娘Ｃ>\r\n<オートステート 19>\r\n<仲間ID:1133>"
Enemy 081
 Name "Zombie Girls"
 Notes "<職業Exp 3>\r\n<逃走レベル 17>\r\n<種族:ゾンビ>\r\n<誘惑時使用スキル:3933>\r\n<スティールリスト 1,I,4,4>\r\n<スティールリスト 1,A,1572,8>\r\n<スティールリスト 2,I,432,2>\r\n<スティールリスト 3,I,186,3>\r\n<スティールリスト 4,A,1835,8>\r\n<図鑑名称:ゾンビ娘Ｄ>\r\n<オートステート 19>\r\n<仲間ID:1133>"
Enemy 082
 Name "Frederika"
 Notes "<職業Exp 15>\r\n<逃走レベル 18>\r\n<種族:ゾンビ>\r\n<誘惑時使用スキル:3942>\r\n<スティールリスト 4,A,1836,8>\r\n<オートステート 19>\r\n<仲間ID:1135>\r\n<捕食無効>\r\n<戦闘回想不可>"
Enemy 083
 Name "Chrome"
 Notes "<職業Exp 15>\r\n<逃走レベル 18>\r\n<種族:淫魔>\r\n<誘惑時使用スキル:4019>\r\n<スティールリスト 4,A,1837,8>\r\n<仲間ID:1134>\r\n<戦闘回想不可>"
Enemy 084
 Name "Elf"
 Notes "<職業Exp 3>\r\n<逃走レベル 18>\r\n<種族:エルフ>\r\n<誘惑時使用スキル:3962>\r\n<スティールリスト 1,I,4,4>\r\n<スティールリスト 1,A,73,8>\r\n<スティールリスト 2,I,311,2>\r\n<スティールリスト 3,I,187,3>\r\n<スティールリスト 4,A,1838,8>\r\n"
Enemy 085
 Name "Brownies"
 Notes "<職業Exp 3>\r\n<逃走レベル 18>\r\n<種族:妖精>\r\n<誘惑時使用スキル:3970>\r\n<スティールリスト 1,I,446,2>\r\n<スティールリスト 1,A,1372,8>\r\n<スティールリスト 2,I,304,2>\r\n<スティールリスト 3,I,188,3>\r\n<スティールリスト 4,A,1839,8>\r\n"
Enemy 086
 Name "Twin Fairies"
 Notes "<職業Exp 3>\r\n<逃走レベル 18>\r\n<種族:妖精>\r\n<誘惑時使用スキル:3972>\r\n<スティールリスト 1,I,447,2>\r\n<スティールリスト 1,A,1007,8>\r\n<スティールリスト 2,I,301,2>\r\n<スティールリスト 3,I,188,3>\r\n<スティールリスト 4,A,1840,8>\r\n"
Enemy 087
 Name "Fairies"
 Notes "<職業Exp 3>\r\n<逃走レベル 18>\r\n<種族:妖精>\r\n<誘惑時使用スキル:3972>\r\n<スティールリスト 1,I,2,2>\r\n<スティールリスト 1,A,1276,8>\r\n<スティールリスト 2,I,435,2>\r\n<スティールリスト 3,I,188,3>\r\n<スティールリスト 4,A,1841,8>\r\n<図鑑名称:フェアリーズＡ>\r\n"
Enemy 088
 Name "Fairies"
 Notes "<職業Exp 3>\r\n<逃走レベル 18>\r\n<種族:妖精>\r\n<誘惑時使用スキル:3972>\r\n<スティールリスト 1,I,4,4>\r\n<スティールリスト 1,A,1115,8>\r\n<スティールリスト 2,I,301,2>\r\n<スティールリスト 3,I,188,3>\r\n<スティールリスト 4,A,1841,8>\r\n<図鑑名称:フェアリーズＢ>\r\n<仲間ID:1139>"
Enemy 089
 Name "Fairies"
 Notes "<職業Exp 3>\r\n<逃走レベル 18>\r\n<種族:妖精>\r\n<誘惑時使用スキル:3972>\r\n<スティールリスト 1,I,11,2>\r\n<スティールリスト 1,W,520,8>\r\n<スティールリスト 2,I,304,2>\r\n<スティールリスト 3,I,188,3>\r\n<スティールリスト 4,A,1841,8>\r\n<図鑑名称:フェアリーズＣ>\r\n<仲間ID:1139>"
Enemy 090
 Name "Fairies"
 Notes "<職業Exp 3>\r\n<逃走レベル 18>\r\n<種族:妖精>\r\n<誘惑時使用スキル:3972>\r\n<スティールリスト 1,I,19,2>\r\n<スティールリスト 1,W,561,16>\r\n<スティールリスト 2,I,417,2>\r\n<スティールリスト 3,I,64,3>\r\n<スティールリスト 4,A,1841,8>\r\n<図鑑名称:フェアリーズＤ>\r\n<仲間ID:1139>"
Enemy 091
 Name "Fairies"
 Notes "<職業Exp 3>\r\n<逃走レベル 18>\r\n<種族:妖精>\r\n<誘惑時使用スキル:3972>\r\n<スティールリスト 1,I,18,2>\r\n<スティールリスト 1,I,12,16>\r\n<スティールリスト 2,I,434,2>\r\n<スティールリスト 3,I,188,3>\r\n<スティールリスト 4,A,1841,8>\r\n<図鑑名称:フェアリーズＥ>\r\n<仲間ID:1139>"
Enemy 092
 Name "Fairies"
 Notes "<職業Exp 3>\r\n<逃走レベル 18>\r\n<種族:妖精>\r\n<誘惑時使用スキル:3972>\r\n<スティールリスト 1,I,2,2>\r\n<スティールリスト 1,W,894,16>\r\n<スティールリスト 2,I,361,2>\r\n<スティールリスト 3,I,188,3>\r\n<スティールリスト 4,A,1841,8>\r\n<図鑑名称:フェアリーズＦ>\r\n<仲間ID:1139>"
Enemy 093
 Name "Sylph"
 Notes "<職業Exp 32>\r\n<逃走レベル 18>\r\n<種族:妖精>\r\n<誘惑時使用スキル:3986>\r\n<スティールリスト 4,A,1842,8>\r\n<仲間ID:1012>\r\n<捕食無効>\r\n<戦闘回想不可>"
Enemy 094
 Name "Armored Berserker"
 Notes "<職業Exp 0>\r\n<逃走レベル 60>\r\n<種族:人間>\r\n<スキップ不能>\r\n<難易度補正無視>\r\n<捕食無効>\r\n<戦闘回想不可>"
Enemy 095
 Name "Tarantula Girl"
 Notes "<職業Exp 4>\r\n<逃走レベル 18>\r\n<種族:虫>\r\n<誘惑時使用スキル:3994>\r\n<スティールリスト 1,I,17,2>\r\n<スティールリスト 1,A,1393,8>\r\n<スティールリスト 2,I,329,2>\r\n<スティールリスト 3,I,175,2>\r\n"
Enemy 096
 Name "Minotaur Girl"
 Notes "<職業Exp 9>\r\n<逃走レベル 18>\r\n<種族:魔獣>\r\n<誘惑時使用スキル:4005>\r\n<スティールリスト 1,I,7,2>\r\n<スティールリスト 1,A,1306,8>\r\n<スティールリスト 2,I,342,2>\r\n<スティールリスト 3,I,189,3>\r\n<スティールリスト 4,A,1843,8>\r\n"
Enemy 097
 Name "Bandersnatch Girl"
 Notes "<職業Exp 9>\r\n<逃走レベル 18>\r\n<種族:ドール>\r\n<誘惑時使用スキル:3492>\r\n<スティールリスト 1,I,2,2>\r\n<スティールリスト 1,A,1300,8>\r\n<スティールリスト 2,I,312,2>\r\n<スティールリスト 3,I,68,3>\r\n"
Enemy 098
 Name "Eva"
 Notes "<職業Exp 33>\r\n<逃走レベル 18>\r\n<種族:淫魔>\r\n<誘惑時使用スキル:4019>\r\n<スティールリスト 4,A,1844,8>\r\n<仲間ID:1143>\r\n<戦闘回想不可>\r\n"
Enemy 099
 Name "Sables"
 Notes "<職業Exp 4>\r\n<逃走レベル 18>\r\n<種族:スキュラ>\r\n<誘惑時使用スキル:3878>\r\n<スティールリスト 1,I,2,2>\r\n<スティールリスト 1,A,1120,8>\r\n<スティールリスト 2,I,330,2>\r\n<スティールリスト 3,I,190,3>\r\n"
Enemy 100
 Name "Centipede Girl"
 Notes "<職業Exp 4>\r\n<逃走レベル 19>\r\n<種族:虫>\r\n<誘惑時使用スキル:4036>\r\n<スティールリスト 1,I,2,2>\r\n<スティールリスト 1,A,1022,8>\r\n<スティールリスト 2,I,432,2>\r\n<スティールリスト 3,I,68,3>\r\n"
Enemy 101
 Name "Scorpion Girl"
 Notes "<職業Exp 4>\r\n<逃走レベル 20>\r\n<種族:虫>\r\n<誘惑時使用スキル:4043>\r\n<スティールリスト 1,I,13,2>\r\n<スティールリスト 1,A,1711,8>\r\n<スティールリスト 2,I,303,2>\r\n<スティールリスト 3,I,60,3>\r\n"
Enemy 102
 Name "Cactus Girl"
 Notes "<職業Exp 4>\r\n<逃走レベル 20>\r\n<種族:植物>\r\n<誘惑時使用スキル:4049>\r\n<スティールリスト 1,I,17,2>\r\n<スティールリスト 1,A,1558,8>\r\n<スティールリスト 2,I,316,2>\r\n<スティールリスト 3,I,191,3>\r\n"
Enemy 103
 Name "Ostrich Girl"
 Notes "<職業Exp 4>\r\n<逃走レベル 20>\r\n<種族:鳥>\r\n<誘惑時使用スキル:4057>\r\n<スティールリスト 1,I,23,2>\r\n<スティールリスト 1,A,8,16>\r\n<スティールリスト 2,I,307,2>\r\n<スティールリスト 3,I,192,3>\r\n"
Enemy 104
 Name "Lamp Genie"
 Notes "<職業Exp 9>\r\n<逃走レベル 20>\r\n<種族:妖魔>\r\n<誘惑時使用スキル:4066>\r\n<スティールリスト 1,I,4,4>\r\n<スティールリスト 1,W,93,16>\r\n<スティールリスト 2,I,363,2>\r\n<スティールリスト 3,I,52,3>\r\n"
Enemy 105
 Name "Mummy Girl"
 Notes "<職業Exp 4>\r\n<逃走レベル 20>\r\n<種族:ゾンビ>\r\n<誘惑時使用スキル:4079>\r\n<スティールリスト 1,I,59,4>\r\n<スティールリスト 1,A,1264,8>\r\n<スティールリスト 2,I,432,2>\r\n<スティールリスト 3,I,186,3>\r\n"
Enemy 106
 Name "Cobra Girl"
 Notes "<職業Exp 4>\r\n<逃走レベル 20>\r\n<種族:ラミア>\r\n<誘惑時使用スキル:4089>\r\n<スティールリスト 1,I,13,2>\r\n<スティールリスト 1,A,1333,8>\r\n<スティールリスト 2,I,329,2>\r\n<スティールリスト 3,I,193,3>\r\n"
Enemy 107
 Name "Nefertiti Lamias"
 Notes "<職業Exp 10>\r\n<逃走レベル 20>\r\n<種族:ラミア>\r\n<誘惑時使用スキル:4099>\r\n<スティールリスト 1,I,4,2>\r\n<スティールリスト 1,A,300,16>\r\n<スティールリスト 2,I,419,2>\r\n<スティールリスト 3,I,193,3>\r\n"
Enemy 108
 Name "Sphinx"
 Notes "<職業Exp 50>\r\n<逃走レベル 60>\r\n<種族:妖魔>\r\n<誘惑時使用スキル:4114>\r\n<捕食無効>\r\n<戦闘回想不可>\r\n"
Enemy 109
 Name "Sara"
 Notes "<職業Exp 35>\r\n<逃走レベル 21>\r\n<種族:淫魔>\r\n<誘惑時使用スキル:4116>\r\n<捕食無効>\r\n<戦闘回想不可>\r\n"
Enemy 110
 Name "Astaroth"
 Notes "<職業Exp 38>\r\n<逃走レベル 21>\r\n<種族:淫魔>\r\n<誘惑時使用スキル:4125>\r\n<スティールリスト 4,A,1845,8>\r\n<捕食無効>\r\n<戦闘回想不可>"
Enemy 111
 Name "Crocodile Girl"
 Notes "<職業Exp 4>\r\n<逃走レベル 20>\r\n<種族:陸棲種>\r\n<誘惑時使用スキル:4141>\r\n<スティールリスト 1,I,7,2>\r\n<スティールリスト 1,A,1082,8>\r\n<スティールリスト 2,I,330,2>\r\n<スティールリスト 3,I,194,3>\r\n\r\n\r\n\r\n\r\n"
Enemy 112
 Name "Saki"
 Notes "<職業Exp 40>\r\n<逃走レベル 21>\r\n<種族:淫魔>\r\n<誘惑時使用スキル:4136>\r\n<スティールリスト 4,A,1846,8>\r\n<仲間ID:1155>\r\n<捕食無効>\r\n<戦闘回想不可>"
Enemy 113
 Name "Devil Fighter"
 Notes "<職業Exp 4>\r\n<逃走レベル 21>\r\n<種族:妖魔>\r\n<誘惑時使用スキル:4141>\r\n<スティールリスト 1,I,2,2>\r\n<スティールリスト 1,A,1285,8>\r\n<スティールリスト 2,I,320,2>\r\n<スティールリスト 3,I,52,3>\r\n<スティールリスト 4,A,1847,8>\r\n"
Enemy 114
 Name "Large Spider"
 Notes "<職業Exp 4>\r\n<逃走レベル 21>\r\n<種族:虫>\r\n<誘惑時使用スキル:3747>\r\n<スティールリスト 1,I,17,2>\r\n<スティールリスト 1,A,1012,8>\r\n<スティールリスト 2,I,360,2>\r\n<スティールリスト 3,I,175,2>\r\n"
Enemy 115
 Name "Suck Vore"
 Notes "<職業Exp 4>\r\n<逃走レベル 21>\r\n<種族:人間>\r\n<誘惑時使用スキル:4146>\r\n<スティールリスト 1,I,4,4>\r\n<スティールリスト 1,A,1163,8>\r\n<スティールリスト 2,I,343,2>\r\n<スティールリスト 3,I,195,3>\r\n"
Enemy 116
 Name "Iron Maiden"
 Notes "<職業Exp 4>\r\n<逃走レベル 21>\r\n<種族:ドール>\r\n<誘惑時使用スキル:3491>\r\n<スティールリスト 1,I,19,2>\r\n<スティールリスト 1,A,1402,8>\r\n<スティールリスト 2,I,432,2>\r\n<スティールリスト 3,I,195,3>\r\n"
Enemy 117
 Name "Worm Villager"
 Notes "<職業Exp 10>\r\n<逃走レベル 21>\r\n<種族:人間>\r\n<誘惑時使用スキル:4159>\r\n<スティールリスト 1,I,4,4>\r\n<スティールリスト 1,A,1384,8>\r\n<スティールリスト 2,I,337,2>\r\n<スティールリスト 3,I,195,3>\r\n<スティールリスト 4,A,1848,8>\r\n"
Enemy 118
 Name "Ustrel"
 Notes "<職業Exp 4>\r\n<逃走レベル 21>\r\n<種族:スキュラ>\r\n<誘惑時使用スキル:3878>\r\n<スティールリスト 1,I,4,4>\r\n<スティールリスト 1,A,1734,8>\r\n<スティールリスト 2,I,324,2>\r\n<スティールリスト 3,I,190,3>\r\n"
Enemy 119
 Name "Honey Pot"
 Notes "<職業Exp 25>\r\n<逃走レベル 25>\r\n<種族:ゴースト>\r\n<誘惑時使用スキル:3502>\r\n<スティールリスト 1,I,3,4>\r\n<スティールリスト 1,I,4,32>\r\n<スティールリスト 2,I,436,2>\r\n<スティールリスト 3,I,177,3>\r\n"
Enemy 120
 Name "Lily"
 Notes "<職業Exp 40>\r\n<逃走レベル 22>\r\n<種族:人間>\r\n<誘惑時使用スキル:4159>\r\n<スティールリスト 4,A,1849,8>\r\n<仲間ID:1163>\r\n<捕食無効>\r\n<戦闘回想不可>\r\n"
Enemy 121
 Name "Oni"
 Notes "<職業Exp 4>\r\n<逃走レベル 21>\r\n<種族:亜人>\r\n<誘惑時使用スキル:4183>\r\n<スティールリスト 1,I,2,2>\r\n<スティールリスト 1,A,1309,8>\r\n<スティールリスト 2,I,332,2>\r\n<スティールリスト 3,I,196,3>\r\n<スティールリスト 4,A,1850,8>\r\n"
Enemy 122
 Name "Onahole Girl"
 Notes "<職業Exp 4>\r\n<逃走レベル 21>\r\n<種族:スライム>\r\n<誘惑時使用スキル:4188>\r\n<スティールリスト 1,I,4,4>\r\n<スティールリスト 1,A,1360,8>\r\n<スティールリスト 2,I,422,2>\r\n<スティールリスト 3,I,195,3>\r\n"
Enemy 123
 Name "Naccubus"
 Notes "<職業Exp 4>\r\n<逃走レベル 21>\r\n<種族:淫魔>\r\n<誘惑時使用スキル:4196>\r\n<スティールリスト 1,I,2,2>\r\n<スティールリスト 1,A,1345,8>\r\n<スティールリスト 2,I,357,2>\r\n<スティールリスト 3,I,181,3>\r\n<スティールリスト 4,A,1851,8>\r\n"
Enemy 124
 Name "Lucia"
 Notes "<職業Exp 40>\r\n<逃走レベル 22>\r\n<種族:人間>\r\n<誘惑時使用スキル:4159>\r\n<仲間ID:1167>\r\n<捕食無効>\r\n<戦闘回想不可>"
Enemy 125
 Name "Dodomeki"
 Notes "<職業Exp 4>\r\n<逃走レベル 22>\r\n<種族:亜人>\r\n<誘惑時使用スキル:4216>\r\n<スティールリスト 1,I,14,2>\r\n<スティールリスト 1,A,1550,8>\r\n<スティールリスト 2,I,360,2>\r\n<スティールリスト 3,I,196,3>\r\n<スティールリスト 4,A,1852,8>\r\n"
Enemy 126
 Name "Lizard Thief"
 Notes "<職業Exp 4>\r\n<逃走レベル 22>\r\n<種族:竜>\r\n<誘惑時使用スキル:4228>\r\n<スティールリスト 1,I,2,2>\r\n<スティールリスト 1,A,1282,8>\r\n<スティールリスト 2,I,340,2>\r\n<スティールリスト 3,I,197,3>\r\n<スティールリスト 4,A,1853,8>\r\n<図鑑名称:リザードシーフＡ>\r\n"
Enemy 127
 Name "Lizard Thief"
 Notes "<職業Exp 4>\r\n<逃走レベル 22>\r\n<種族:竜>\r\n<誘惑時使用スキル:4229>\r\n<スティールリスト 1,I,7,2>\r\n<スティールリスト 1,A,1002,8>\r\n<スティールリスト 2,I,343,2>\r\n<スティールリスト 3,I,197,3>\r\n<スティールリスト 4,A,1854,8>\r\n<図鑑名称:リザードシーフＢ>\r\n"
Enemy 128
 Name "Lizard Boss"
 Notes "<職業Exp 42>\r\n<逃走レベル 23>\r\n<種族:竜>\r\n<誘惑時使用スキル:4228>\r\n<スティールリスト 4,A,1855,8>\r\n<仲間ID:1171>\r\n<捕食無効>\r\n<戦闘回想不可>\r\n"
Enemy 129
 Name "Mirage Girl"
 Notes "<職業Exp 4>\r\n<逃走レベル 23>\r\n<種族:ゴースト>\r\n<誘惑時使用スキル:4233>\r\n<スティールリスト 1,I,4,4>\r\n<スティールリスト 1,A,1318,8>\r\n<スティールリスト 2,I,316,2>\r\n<スティールリスト 3,I,52,3>\r\n<スティールリスト 4,A,1856,8>\r\n"
Enemy 130
 Name "Antlion Girl"
 Notes "<職業Exp 10>\r\n<逃走レベル 23>\r\n<種族:虫>\r\n<誘惑時使用スキル:3896>\r\n<スティールリスト 1,I,68,4>\r\n<スティールリスト 1,A,1393,8>\r\n<スティールリスト 2,I,432,2>\r\n<スティールリスト 3,I,201,3>\r\n"
Enemy 131
 Name "Sandworm"
 Notes "<職業Exp 12>\r\n<逃走レベル 23>\r\n<種族:虫>\r\n<誘惑時使用スキル:3490>\r\n<スティールリスト 1,I,2,2>\r\n<スティールリスト 1,I,26,32>\r\n<スティールリスト 2,I,303,2>\r\n<スティールリスト 3,I,201,3>\r\n"
Enemy 132
 Name "Desert Scylla"
 Notes "<職業Exp 4>\r\n<逃走レベル 23>\r\n<種族:スキュラ>\r\n<誘惑時使用スキル:3614>\r\n<スティールリスト 1,I,2,2>\r\n<スティールリスト 1,A,1384,8>\r\n<スティールリスト 2,I,330,2>\r\n<スティールリスト 3,I,202,3>\r\n"
Enemy 133
 Name "Gnome"
 Notes "<職業Exp 45>\r\n<逃走レベル 23>\r\n<種族:妖精>\r\n<誘惑時使用スキル:3489>\r\n<スティールリスト 4,A,1857,8>\r\n<仲間ID:1013>\r\n<捕食無効>\r\n<戦闘回想不可>"
Enemy 134
 Name "Vitae"
 Notes "<職業Exp 5>\r\n<逃走レベル 23>\r\n<種族:アポトーシス>\r\n<誘惑時使用スキル:4258>\r\n<スティールリスト 1,I,71,4>\r\n<スティールリスト 1,A,1066,8>\r\n<スティールリスト 3,I,198,3>\r\n"
Enemy 135
 Name "Vetala"
 Notes "<職業Exp 5>\r\n<逃走レベル 23>\r\n<種族:アポトーシス>\r\n<誘惑時使用スキル:4261>\r\n<スティールリスト 1,I,17,2>\r\n<スティールリスト 1,A,1149,8>\r\n<スティールリスト 3,I,198,3>\r\n"
Enemy 136
 Name "Valto"
 Notes "<職業Exp 5>\r\n<逃走レベル 23>\r\n<種族:アポトーシス>\r\n<誘惑時使用スキル:3892>\r\n<スティールリスト 1,I,60,4>\r\n<スティールリスト 1,A,1564,8>\r\n<スティールリスト 3,I,198,3>\r\n"
Enemy 137
 Name "Shinifa"
 Notes "<職業Exp 5>\r\n<逃走レベル 23>\r\n<種族:アポトーシス>\r\n<誘惑時使用スキル:4275>\r\n<スティールリスト 1,I,4,4>\r\n<スティールリスト 1,A,1111,8>\r\n<スティールリスト 3,I,198,3>\r\n"
Enemy 138
 Name "Shadow Girl"
 Notes "<職業Exp 5>\r\n<逃走レベル 24>\r\n<種族:ゴースト>\r\n<誘惑時使用スキル:4279>\r\n<スティールリスト 1,I,16,2>\r\n<スティールリスト 1,A,1086,8>\r\n<スティールリスト 2,I,321,2>\r\n<スティールリスト 3,I,185,3>\r\n"
Enemy 139
 Name "Paintgeist"
 Notes "<職業Exp 5>\r\n<逃走レベル 24>\r\n<種族:ゴースト>\r\n<誘惑時使用スキル:3940>\r\n<スティールリスト 1,I,2,2>\r\n<スティールリスト 1,A,1539,8>\r\n<スティールリスト 2,I,313,2>\r\n<スティールリスト 3,I,185,3>\r\n<スティールリスト 4,A,1858,8>\r\n"
Enemy 140
 Name "Chimera Homunculus"
 Notes "<職業Exp 5>\r\n<逃走レベル 24>\r\n<種族:キメラ>\r\n<誘惑時使用スキル:4299>\r\n<スティールリスト 1,I,4,4>\r\n<スティールリスト 1,A,1554,8>\r\n<スティールリスト 2,I,325,2>\r\n<スティールリスト 3,I,199,3>\r\n"
Enemy 141
 Name "Neo Iron Maiden"
 Notes "<職業Exp 5>\r\n<逃走レベル 24>\r\n<種族:ドール>\r\n<誘惑時使用スキル:3491>\r\n<スティールリスト 1,I,19,2>\r\n<スティールリスト 1,A,1584,8>\r\n<スティールリスト 2,I,301,2>\r\n<スティールリスト 3,I,199,3>\r\n"
Enemy 142
 Name "Junk Doll Girl"
 Notes "<職業Exp 12>\r\n<逃走レベル 24>\r\n<種族:ドール>\r\n<誘惑時使用スキル:4313>\r\n<スティールリスト 1,I,23,2>\r\n<スティールリスト 1,A,1267,8>\r\n<スティールリスト 2,I,338,2>\r\n<スティールリスト 3,I,200,3>\r\n"
Enemy 143
 Name "Adramelech"
 Notes "<職業Exp 50>\r\n<逃走レベル 24>\r\n<種族:アポトーシス>\r\n<誘惑時使用スキル:3614>\r\n<捕食無効>\r\n<戦闘回想不可>"
Enemy 144
 Name "Alipheese the 16th"
 Notes "<職業Exp 50>\r\n<逃走レベル 50>\r\n<種族:妖魔>\r\n<誘惑時使用スキル:3488>\r\n<スティールリスト 4,A,1953,8>\r\n<図鑑名称:アリスフィーズ16世（冥府）>\r\n<捕食無効>\r\n<戦闘回想不可>\r\n"
Enemy 145
 Name "Reaper"
 Notes "<職業Exp 99>\r\n<逃走レベル 80>\r\n<種族:ゴースト>\r\n<誘惑時使用スキル:3912>\r\n<スティールリスト 1,I,9,16>\r\n<スティールリスト 1,I,24,16>\r\n<スティールリスト 2,I,444,2>\r\n<スティールリスト 3,I,273,16>\r\n<スティールリスト 4,A,1954,8>\r\n<捕食無効>\r\n<戦闘回想不可>\r\n"
Enemy 146
 Name "Archangel Ranael"
 Notes "<職業Exp 15>\r\n<逃走レベル 60>\r\n<種族:天使>\r\n<図鑑名称:ラナエル（異世界）>\r\n<捕食無効>\r\n<戦闘回想不可>\r\n"
Enemy 147
 Name "Principality Nagael"
 Notes "<職業Exp 15>\r\n<逃走レベル 60>\r\n<種族:天使>\r\n<図鑑名称:ナガエル（異世界）>\r\n<捕食無効>\r\n<戦闘回想不可>\r\n"
Enemy 151
 Name "***ダミー"
Enemy 152
 Name "***ダミー"
Enemy 153
 Name "***ダミー"
Enemy 154
 Name "***ダミー"
Enemy 155
 Name "***ダミー"
Enemy 156
 Name "***ダミー"
Enemy 157
 Name "***ダミー"
Enemy 158
 Name "***ダミー"
Enemy 159
 Name "***ダミー"
Enemy 160
 Name "***ダミー"
Enemy 161
 Name "***ダミー"
Enemy 162
 Name "***ダミー"
Enemy 163
 Name "***ダミー"
Enemy 164
 Name "***ダミー"
Enemy 165
 Name "***ダミー"
Enemy 166
 Name "***ダミー"
Enemy 167
 Name "***ダミー"
Enemy 168
 Name "***ダミー"
Enemy 169
 Name "***ダミー"
Enemy 170
 Name "***ダミー"
Enemy 171
 Name "***ダミー"
Enemy 172
 Name "***ダミー"
Enemy 173
 Name "***ダミー"
Enemy 174
 Name "***ダミー"
Enemy 175
 Name "***ダミー"
Enemy 176
 Name "***ダミー"
Enemy 177
 Name "***ダミー"
Enemy 178
 Name "***ダミー"
Enemy 179
 Name "***ダミー"
Enemy 180
 Name "***ダミー"
Enemy 181
 Name "***ダミー"
Enemy 182
 Name "***ダミー"
Enemy 183
 Name "***ダミー"
Enemy 184
 Name "***ダミー"
Enemy 185
 Name "***ダミー"
Enemy 186
 Name "***ダミー"
Enemy 187
 Name "***ダミー"
Enemy 188
 Name "***ダミー"
Enemy 189
 Name "***ダミー"
Enemy 190
 Name "***ダミー"
Enemy 191
 Name "***ダミー"
Enemy 192
 Name "***ダミー"
Enemy 193
 Name "***ダミー"
Enemy 194
 Name "***ダミー"
Enemy 195
 Name "***ダミー"
Enemy 196
 Name "***ダミー"
Enemy 197
 Name "***ダミー"
Enemy 198
 Name "***ダミー"
Enemy 199
 Name "***ダミー"
Enemy 200
 Name "***ダミー"
Enemy 201
 Name "***ダミー"
Enemy 202
 Name "***ダミー"
Enemy 203
 Name "***ダミー"
Enemy 204
 Name "***ダミー"
Enemy 205
 Name "***ダミー"
Enemy 206
 Name "***ダミー"
Enemy 207
 Name "***ダミー"
Enemy 208
 Name "***ダミー"
Enemy 209
 Name "***ダミー"
Enemy 210
 Name "***ダミー"
Enemy 211
 Name "***ダミー"
Enemy 212
 Name "***ダミー"
Enemy 213
 Name "***ダミー"
Enemy 214
 Name "***ダミー"
Enemy 215
 Name "***ダミー"
Enemy 216
 Name "***ダミー"
Enemy 217
 Name "***ダミー"
Enemy 218
 Name "***ダミー"
Enemy 219
 Name "***ダミー"
Enemy 220
 Name "***ダミー"
Enemy 221
 Name "***ダミー"
Enemy 222
 Name "***ダミー"
Enemy 223
 Name "***ダミー"
Enemy 224
 Name "***ダミー"
Enemy 225
 Name "***ダミー"
Enemy 226
 Name "***ダミー"
Enemy 227
 Name "***ダミー"
Enemy 228
 Name "***ダミー"
Enemy 229
 Name "***ダミー"
Enemy 230
 Name "***ダミー"
Enemy 231
 Name "***ダミー"
Enemy 232
 Name "***ダミー"
Enemy 233
 Name "***ダミー"
Enemy 234
 Name "***ダミー"
Enemy 235
 Name "***ダミー"
Enemy 236
 Name "***ダミー"
Enemy 237
 Name "***ダミー"
Enemy 238
 Name "***ダミー"
Enemy 239
 Name "***ダミー"
Enemy 240
 Name "***ダミー"
Enemy 241
 Name "***ダミー"
Enemy 242
 Name "***ダミー"
Enemy 243
 Name "***ダミー"
Enemy 244
 Name "***ダミー"
Enemy 245
 Name "***ダミー"
Enemy 246
 Name "***ダミー"
Enemy 247
 Name "***ダミー"
Enemy 248
 Name "***ダミー"
Enemy 249
 Name "***ダミー"
Enemy 250
 Name "***ダミー"
Enemy 251
 Name "***ダミー"
Enemy 252
 Name "***ダミー"
Enemy 253
 Name "***ダミー"
Enemy 254
 Name "***ダミー"
Enemy 255
 Name "***ダミー"
Enemy 256
 Name "***ダミー"
Enemy 257
 Name "***ダミー"
Enemy 258
 Name "***ダミー"
Enemy 259
 Name "***ダミー"
Enemy 260
 Name "***ダミー"
Enemy 261
 Name "***ダミー"
Enemy 262
 Name "***ダミー"
Enemy 263
 Name "***ダミー"
Enemy 264
 Name "***ダミー"
Enemy 265
 Name "***ダミー"
Enemy 266
 Name "***ダミー"
Enemy 267
 Name "***ダミー"
Enemy 268
 Name "***ダミー"
Enemy 269
 Name "***ダミー"
Enemy 270
 Name "***ダミー"
Enemy 271
 Name "***ダミー"
Enemy 272
 Name "***ダミー"
Enemy 273
 Name "***ダミー"
Enemy 274
 Name "***ダミー"
Enemy 275
 Name "***ダミー"
Enemy 276
 Name "***ダミー"
Enemy 277
 Name "***ダミー"
Enemy 278
 Name "***ダミー"
Enemy 279
 Name "***ダミー"
Enemy 280
 Name "***ダミー"
Enemy 281
 Name "***ダミー"
Enemy 282
 Name "***ダミー"
Enemy 283
 Name "***ダミー"
Enemy 284
 Name "***ダミー"
Enemy 285
 Name "***ダミー"
Enemy 286
 Name "***ダミー"
Enemy 287
 Name "***ダミー"
Enemy 288
 Name "***ダミー"
Enemy 289
 Name "***ダミー"
Enemy 290
 Name "***ダミー"
Enemy 291
 Name "***ダミー"
Enemy 292
 Name "***ダミー"
Enemy 293
 Name "***ダミー"
Enemy 294
 Name "***ダミー"
Enemy 295
 Name "***ダミー"
Enemy 296
 Name "***ダミー"
Enemy 297
 Name "***ダミー"
Enemy 298
 Name "***ダミー"
Enemy 299
 Name "***ダミー"
Enemy 300
 Name "***ダミー"
Enemy 301
 Name "***ダミー"
Enemy 302
 Name "***ダミー"
Enemy 303
 Name "***ダミー"
Enemy 304
 Name "***ダミー"
Enemy 305
 Name "***ダミー"
Enemy 306
 Name "***ダミー"
Enemy 307
 Name "***ダミー"
Enemy 308
 Name "***ダミー"
Enemy 309
 Name "***ダミー"
Enemy 310
 Name "***ダミー"
Enemy 311
 Name "***ダミー"
Enemy 312
 Name "***ダミー"
Enemy 313
 Name "***ダミー"
Enemy 314
 Name "***ダミー"
Enemy 315
 Name "***ダミー"
Enemy 316
 Name "***ダミー"
Enemy 317
 Name "***ダミー"
Enemy 318
 Name "***ダミー"
Enemy 319
 Name "***ダミー"
Enemy 320
 Name "***ダミー"
Enemy 321
 Name "***ダミー"
Enemy 322
 Name "***ダミー"
Enemy 323
 Name "***ダミー"
Enemy 324
 Name "***ダミー"
Enemy 325
 Name "***ダミー"
Enemy 326
 Name "***ダミー"
Enemy 327
 Name "***ダミー"
Enemy 328
 Name "***ダミー"
Enemy 329
 Name "***ダミー"
Enemy 330
 Name "***ダミー"
Enemy 331
 Name "***ダミー"
Enemy 332
 Name "***ダミー"
Enemy 333
 Name "***ダミー"
Enemy 334
 Name "***ダミー"
Enemy 335
 Name "***ダミー"
Enemy 336
 Name "***ダミー"
Enemy 337
 Name "***ダミー"
Enemy 338
 Name "***ダミー"
Enemy 339
 Name "***ダミー"
Enemy 340
 Name "***ダミー"
Enemy 341
 Name "***ダミー"
Enemy 342
 Name "***ダミー"
Enemy 343
 Name "***ダミー"
Enemy 344
 Name "***ダミー"
Enemy 345
 Name "***ダミー"
Enemy 346
 Name "***ダミー"
Enemy 347
 Name "***ダミー"
Enemy 348
 Name "***ダミー"
Enemy 349
 Name "***ダミー"
Enemy 350
 Name "***ダミー"
Enemy 351
 Name "***ダミー"
Enemy 352
 Name "***ダミー"
Enemy 353
 Name "***ダミー"
Enemy 354
 Name "***ダミー"
Enemy 355
 Name "***ダミー"
Enemy 356
 Name "***ダミー"
Enemy 357
 Name "***ダミー"
Enemy 358
 Name "***ダミー"
Enemy 359
 Name "***ダミー"
Enemy 360
 Name "***ダミー"
Enemy 361
 Name "***ダミー"
Enemy 362
 Name "***ダミー"
Enemy 363
 Name "***ダミー"
Enemy 364
 Name "***ダミー"
Enemy 365
 Name "***ダミー"
Enemy 366
 Name "***ダミー"
Enemy 367
 Name "***ダミー"
Enemy 368
 Name "***ダミー"
Enemy 369
 Name "***ダミー"
Enemy 370
 Name "***ダミー"
Enemy 381
 Name "***ダミー"
Enemy 382
 Name "***ダミー"
Enemy 383
 Name "***ダミー"
Enemy 384
 Name "***ダミー"
Enemy 385
 Name "***ダミー"
Enemy 386
 Name "***ダミー"
Enemy 387
 Name "***ダミー"
Enemy 388
 Name "***ダミー"
Enemy 389
 Name "***ダミー"
Enemy 390
 Name "***ダミー"
Enemy 391
 Name "***ダミー"
Enemy 392
 Name "***ダミー"
Enemy 393
 Name "***ダミー"
Enemy 394
 Name "***ダミー"
Enemy 395
 Name "***ダミー"
Enemy 396
 Name "***ダミー"
Enemy 397
 Name "***ダミー"
Enemy 398
 Name "***ダミー"
Enemy 399
 Name "***ダミー"
Enemy 400
 Name "***ダミー"
Enemy 401
 Name "***ダミー"
Enemy 402
 Name "***ダミー"
Enemy 403
 Name "***ダミー"
Enemy 404
 Name "***ダミー"
Enemy 405
 Name "***ダミー"
Enemy 406
 Name "***ダミー"
Enemy 407
 Name "***ダミー"
Enemy 408
 Name "***ダミー"
Enemy 409
 Name "***ダミー"
Enemy 410
 Name "***ダミー"
Enemy 411
 Name "***ダミー"
Enemy 412
 Name "***ダミー"
Enemy 413
 Name "***ダミー"
Enemy 414
 Name "***ダミー"
Enemy 415
 Name "***ダミー"
Enemy 416
 Name "***ダミー"
Enemy 417
 Name "***ダミー"
Enemy 418
 Name "***ダミー"
Enemy 419
 Name "***ダミー"
Enemy 420
 Name "***ダミー"
Enemy 421
 Name "***ダミー"
Enemy 422
 Name "***ダミー"
Enemy 423
 Name "***ダミー"
Enemy 424
 Name "***ダミー"
Enemy 425
 Name "***ダミー"
Enemy 426
 Name "***ダミー"
Enemy 427
 Name "***ダミー"
Enemy 428
 Name "***ダミー"
Enemy 429
 Name "***ダミー"
Enemy 430
 Name "***ダミー"
Enemy 431
 Name "***ダミー"
Enemy 432
 Name "***ダミー"
Enemy 433
 Name "***ダミー"
Enemy 434
 Name "***ダミー"
Enemy 435
 Name "***ダミー"
Enemy 436
 Name "***ダミー"
Enemy 437
 Name "***ダミー"
Enemy 438
 Name "***ダミー"
Enemy 439
 Name "***ダミー"
Enemy 440
 Name "***ダミー"
Enemy 441
 Name "***ダミー"
Enemy 442
 Name "***ダミー"
Enemy 443
 Name "***ダミー"
Enemy 444
 Name "***ダミー"
Enemy 445
 Name "***ダミー"
Enemy 446
 Name "***ダミー"
Enemy 447
 Name "***ダミー"
Enemy 448
 Name "***ダミー"
Enemy 449
 Name "***ダミー"
Enemy 450
 Name "***ダミー"
Enemy 451
 Name "***ダミー"
Enemy 452
 Name "***ダミー"
Enemy 453
 Name "***ダミー"
Enemy 454
 Name "***ダミー"
Enemy 455
 Name "***ダミー"
Enemy 456
 Name "***ダミー"
Enemy 457
 Name "***ダミー"
Enemy 458
 Name "***ダミー"
Enemy 459
 Name "***ダミー"
Enemy 460
 Name "***ダミー"
Enemy 461
 Name "***ダミー"
Enemy 462
 Name "***ダミー"
Enemy 463
 Name "***ダミー"
Enemy 464
 Name "***ダミー"
Enemy 465
 Name "***ダミー"
Enemy 466
 Name "***ダミー"
Enemy 467
 Name "***ダミー"
Enemy 468
 Name "***ダミー"
Enemy 469
 Name "***ダミー"
Enemy 470
 Name "***ダミー"
Enemy 471
 Name "***ダミー"
Enemy 472
 Name "***ダミー"
Enemy 473
 Name "***ダミー"
Enemy 474
 Name "***ダミー"
Enemy 475
 Name "***ダミー"
Enemy 476
 Name "***ダミー"
Enemy 477
 Name "***ダミー"
Enemy 478
 Name "***ダミー"
Enemy 479
 Name "***ダミー"
Enemy 480
 Name "***ダミー"
Enemy 481
 Name "***ダミー"
Enemy 482
 Name "***ダミー"
Enemy 483
 Name "***ダミー"
Enemy 484
 Name "***ダミー"
Enemy 485
 Name "***ダミー"
Enemy 486
 Name "***ダミー"
Enemy 487
 Name "***ダミー"
Enemy 488
 Name "***ダミー"
Enemy 489
 Name "***ダミー"
Enemy 490
 Name "***ダミー"
Enemy 491
 Name "***ダミー"
Enemy 492
 Name "***ダミー"
Enemy 493
 Name "***ダミー"
Enemy 494
 Name "***ダミー"
Enemy 495
 Name "***ダミー"
Enemy 496
 Name "***ダミー"
Enemy 497
 Name "***ダミー"
Enemy 498
 Name "***ダミー"
Enemy 499
 Name "***ダミー"
Enemy 500
 Name "***ダミー"
Enemy 501
 Name "***ダミー"
Enemy 502
 Name "***ダミー"
Enemy 503
 Name "***ダミー"
Enemy 504
 Name "***ダミー"
Enemy 505
 Name "***ダミー"
Enemy 506
 Name "***ダミー"
Enemy 507
 Name "***ダミー"
Enemy 508
 Name "***ダミー"
Enemy 509
 Name "***ダミー"
Enemy 510
 Name "***ダミー"
Enemy 511
 Name "***ダミー"
Enemy 512
 Name "***ダミー"
Enemy 513
 Name "***ダミー"
Enemy 514
 Name "***ダミー"
Enemy 515
 Name "***ダミー"
Enemy 516
 Name "***ダミー"
Enemy 517
 Name "***ダミー"
Enemy 518
 Name "***ダミー"
Enemy 519
 Name "***ダミー"
Enemy 520
 Name "***ダミー"
Enemy 521
 Name "***ダミー"
Enemy 522
 Name "***ダミー"
Enemy 523
 Name "***ダミー"
Enemy 524
 Name "***ダミー"
Enemy 525
 Name "***ダミー"
Enemy 526
 Name "***ダミー"
Enemy 527
 Name "***ダミー"
Enemy 528
 Name "***ダミー"
Enemy 529
 Name "***ダミー"
Enemy 530
 Name "***ダミー"
Enemy 531
 Name "***ダミー"
Enemy 532
 Name "***ダミー"
Enemy 533
 Name "***ダミー"
Enemy 534
 Name "***ダミー"
Enemy 535
 Name "***ダミー"
Enemy 536
 Name "***ダミー"
Enemy 537
 Name "***ダミー"
Enemy 538
 Name "***ダミー"
Enemy 539
 Name "***ダミー"
Enemy 540
 Name "***ダミー"
Enemy 541
 Name "***ダミー"
Enemy 542
 Name "***ダミー"
Enemy 543
 Name "***ダミー"
Enemy 544
 Name "***ダミー"
Enemy 545
 Name "***ダミー"
Enemy 546
 Name "***ダミー"
Enemy 547
 Name "***ダミー"
Enemy 548
 Name "***ダミー"
Enemy 549
 Name "***ダミー"
Enemy 550
 Name "***ダミー"
Enemy 551
 Name "***ダミー"
Enemy 552
 Name "***ダミー"
Enemy 553
 Name "***ダミー"
Enemy 554
 Name "***ダミー"
Enemy 555
 Name "***ダミー"
Enemy 556
 Name "***ダミー"
Enemy 557
 Name "***ダミー"
Enemy 558
 Name "***ダミー"
Enemy 559
 Name "***ダミー"
Enemy 560
 Name "***ダミー"
Enemy 561
 Name "***ダミー"
Enemy 562
 Name "***ダミー"
Enemy 563
 Name "***ダミー"
Enemy 564
 Name "***ダミー"
Enemy 565
 Name "***ダミー"
Enemy 566
 Name "***ダミー"
Enemy 567
 Name "***ダミー"
Enemy 568
 Name "***ダミー"
Enemy 569
 Name "***ダミー"
Enemy 570
 Name "***ダミー"
Enemy 571
 Name "***ダミー"
Enemy 572
 Name "***ダミー"
Enemy 573
 Name "***ダミー"
Enemy 574
 Name "***ダミー"
Enemy 575
 Name "***ダミー"
Enemy 576
 Name "***ダミー"
Enemy 577
 Name "***ダミー"
Enemy 578
 Name "***ダミー"
Enemy 579
 Name "***ダミー"
Enemy 580
 Name "***ダミー"
Enemy 581
 Name "***ダミー"
Enemy 582
 Name "***ダミー"
Enemy 583
 Name "***ダミー"
Enemy 584
 Name "***ダミー"
Enemy 585
 Name "***ダミー"
Enemy 586
 Name "***ダミー"
Enemy 587
 Name "***ダミー"
Enemy 588
 Name "***ダミー"
Enemy 589
 Name "***ダミー"
Enemy 590
 Name "***ダミー"
Enemy 1001
 Name "Slime Girl"
 Notes "<職業Exp 4>\r\n<逃走レベル 33>\r\n<種族:スライム>\r\n<誘惑時使用スキル:3502>\r\n<スティールリスト 1,I,1,2>\r\n<スティールリスト 1,W,679,16>\r\n<スティールリスト 2,I,322,2>\r\n<スティールリスト 3,I,160,2>\r\n"
Enemy 1003
 Name "Bunny Slime"
 Notes "<職業Exp 4>\r\n<逃走レベル 33>\r\n<種族:スライム>\r\n<誘惑時使用スキル:3502>\r\n<スティールリスト 1,I,1,2>\r\n<スティールリスト 1,A,1176,16>\r\n<スティールリスト 2,I,310,2>\r\n<スティールリスト 3,I,160,2>\r\n\r\n"
Enemy 1004
 Name "Slug Girl"
 Notes "<職業Exp 4>\r\n<逃走レベル 33>\r\n<種族:陸棲種>\r\n<誘惑時使用スキル:3512>\r\n<スティールリスト 1,I,13,2>\r\n<スティールリスト 1,A,1028,8>\r\n<スティールリスト 2,I,309,2>\r\n<スティールリスト 3,I,161,2>\r\n<スティールリスト 4,A,1801,8>\r\n"
Enemy 1005
 Name "Imp"
 Notes "<職業Exp 4>\r\n<逃走レベル 33>\r\n<種族:淫魔>\r\n<誘惑時使用スキル:3520>\r\n<スティールリスト 1,I,1,2>\r\n<スティールリスト 1,A,1244,8>\r\n<スティールリスト 2,I,357,2>\r\n<スティールリスト 3,I,162,2>\r\n<スティールリスト 4,A,1802,8>\r\n"
Enemy 1006
 Name "Mandragora"
 Notes "<職業Exp 4>\r\n<逃走レベル 33>\r\n<種族:植物>\r\n<誘惑時使用スキル:3527>\r\n<スティールリスト 1,I,1,2>\r\n<スティールリスト 1,I,163,8>\r\n<スティールリスト 2,I,307,2>\r\n<スティールリスト 3,I,163,2>\r\n\r\n"
Enemy 1007
 Name "Dog Girl"
 Notes "<職業Exp 4>\r\n<逃走レベル 33>\r\n<種族:魔獣>\r\n<誘惑時使用スキル:3535>\r\n<スティールリスト 1,I,442,2>\r\n<スティールリスト 1,I,11,4>\r\n<スティールリスト 2,I,442,2>\r\n<スティールリスト 3,I,164,2>\r\n<スティールリスト 4,A,1805,8>\r\n<拡張命中率 50%>\r\n"
Enemy 1008
 Name "Earthworm Girl"
 Notes "<職業Exp 4>\r\n<逃走レベル 33>\r\n<種族:陸棲種>\r\n<誘惑時使用スキル:3511>\r\n<スティールリスト 1,I,13,2>\r\n<スティールリスト 1,I,67,4>\r\n<スティールリスト 2,I,301,2>\r\n<スティールリスト 3,I,161,2>"
Enemy 1009
 Name "Goblin Girl"
 Notes "<職業Exp 40>\r\n<逃走レベル 99>\r\n<種族:亜人>\r\n<誘惑時使用スキル:3546>\r\n<スティールリスト 4,A,1806,8>\r\n\r\n"
Enemy 1010
 Name "Tiny Lamia"
 Notes "<職業Exp 40>\r\n<逃走レベル 99>\r\n<種族:ラミア>\r\n<誘惑時使用スキル:3555>\r\n\r\n"
Enemy 1011
 Name "Vampire Girl"
 Notes "<職業Exp 40>\r\n<逃走レベル 99>\r\n<種族:吸血鬼>\r\n<誘惑時使用スキル:3563>\r\n<スティールリスト 4,A,1807,8>\r\n"
Enemy 1012
 Name "Dragon Pup"
 Notes "<職業Exp 40>\r\n<逃走レベル 99>\r\n<種族:竜>\r\n<誘惑時使用スキル:4228>\r\n<スティールリスト 4,A,1808,8>\r\n"
Enemy 1013
 Name "Rat Girl"
 Notes "<職業Exp 4>\r\n<逃走レベル 33>\r\n<種族:魔獣>\r\n<誘惑時使用スキル:3535>\r\n<スティールリスト 1,I,1,2>\r\n<スティールリスト 1,A,1038,8>\r\n<スティールリスト 2,I,341,2>\r\n<スティールリスト 3,I,164,2>\r\n<スティールリスト 4,A,1809,8>\r\n<拡張命中率 50%>\r\n"
Enemy 1014
 Name "Wolf Girl"
 Notes "<職業Exp 4>\r\n<逃走レベル 33>\r\n<種族:魔獣>\r\n<誘惑時使用スキル:3535>\r\n<スティールリスト 1,I,7,2>\r\n<スティールリスト 1,I,11,4>\r\n<スティールリスト 2,I,329,2>\r\n<スティールリスト 3,I,164,2>\r\n<拡張命中率 50%>\r\n"
Enemy 1015
 Name "Phoenix Girl"
 Notes "<職業Exp 40>\r\n<逃走レベル 99>\r\n<種族:鳥>\r\n<誘惑時使用スキル:3574>\r\n<スティールリスト 4,A,1810,8>\r\n<捕食無効>\r\n<拡張命中率 50%>"
Enemy 1016
 Name "Leech Girl"
 Notes "<職業Exp 4>\r\n<逃走レベル 33>\r\n<種族:陸棲種>\r\n<誘惑時使用スキル:3576>\r\n<スティールリスト 1,I,13,2>\r\n<スティールリスト 1,A,1043,8>\r\n<スティールリスト 2,I,337,2>\r\n<スティールリスト 3,I,165,2>\r\n"
Enemy 1017
 Name "Rabbit Girl"
 Notes "<職業Exp 4>\r\n<逃走レベル 33>\r\n<種族:魔獣>\r\n<誘惑時使用スキル:3585>\r\n<スティールリスト 1,I,1,2>\r\n<スティールリスト 1,W,556,16>\r\n<スティールリスト 2,I,310,2>\r\n<スティールリスト 3,I,51,2>\r\n<スティールリスト 4,A,1811,8>\r\n<拡張命中率 100%>\r\n"
Enemy 1018
 Name "Sheep Girl"
 Notes "<職業Exp 4>\r\n<逃走レベル 33>\r\n<種族:魔獣>\r\n<誘惑時使用スキル:3592>\r\n<スティールリスト 1,I,433,4>\r\n<スティールリスト 1,A,1148,8>\r\n<スティールリスト 2,I,431,2>\r\n<スティールリスト 3,I,55,2>\r\n<スティールリスト 4,A,1812,8>\r\n<拡張命中率 50%>\r\n"
Enemy 1019
 Name "Sully"
 Notes "<職業Exp 4>\r\n<逃走レベル 33>\r\n<種族:アポトーシス>\r\n<誘惑時使用スキル:3786>\r\n<スティールリスト 1,I,55,4>\r\n<スティールリスト 1,A,1008,8>\r\n<スティールリスト 3,I,166,2>\r\n\r\n"
Enemy 1020
 Name "Jaide"
 Notes "<職業Exp 4>\r\n<逃走レベル 33>\r\n<種族:アポトーシス>\r\n<誘惑時使用スキル:3497>\r\n<スティールリスト 1,I,59,4>\r\n<スティールリスト 1,A,1013,8>\r\n<スティールリスト 3,I,166,2>\r\n<拡張命中率 100%>\r\n<拡張物理反射率 100%>"
Enemy 1021
 Name "Shesta"
 Notes "<職業Exp 4>\r\n<逃走レベル 33>\r\n<種族:アポトーシス>\r\n<誘惑時使用スキル:3611>\r\n<スティールリスト 1,I,166,4>\r\n<スティールリスト 1,A,152,8>\r\n<スティールリスト 3,I,166,2>\r\n<スティールリスト 4,A,1813,8>\r\n"
Enemy 1022
 Name "Nuruko"
 Notes "<職業Exp 50>\r\n<逃走レベル 99>\r\n<種族:アポトーシス>\r\n<誘惑時使用スキル:3614>\r\n\r\n"
Enemy 1023
 Name "Orc Girl"
 Notes "<職業Exp 4>\r\n<逃走レベル 33>\r\n<種族:魔獣>\r\n<誘惑時使用スキル:3622>\r\n<スティールリスト 1,I,23,2>\r\n<スティールリスト 1,A,1018,8>\r\n<スティールリスト 2,I,331,2>\r\n<スティールリスト 3,I,67,2>\r\n"
Enemy 1024
 Name "Bee Girl"
 Notes "<職業Exp 4>\r\n<逃走レベル 33>\r\n<種族:虫>\r\n<誘惑時使用スキル:3627>\r\n<スティールリスト 1,I,14,2>\r\n<スティールリスト 1,I,167,4>\r\n<スティールリスト 2,I,436,2>\r\n<スティールリスト 3,I,167,2>\r\n"
Enemy 1025
 Name "Sparrow Girl"
 Notes "<職業Exp 4>\r\n<逃走レベル 33>\r\n<種族:鳥>\r\n<誘惑時使用スキル:3574>\r\n<スティールリスト 1,I,1,2>\r\n<スティールリスト 1,I,23,4>\r\n<スティールリスト 2,I,360,2>\r\n<スティールリスト 3,I,168,2>\r\n<スティールリスト 4,A,1814,8>\r\n<拡張命中率 50%>\r\n"
Enemy 1026
 Name "Harpy"
 Notes "<職業Exp 10>\r\n<逃走レベル 33>\r\n<種族:鳥>\r\n<誘惑時使用スキル:3636>\r\n<スティールリスト 1,I,23,2>\r\n<スティールリスト 1,I,63,4>\r\n<スティールリスト 2,I,361,2>\r\n<スティールリスト 3,I,168,2>\r\n<拡張命中率 50%>\r\n"
Enemy 1027
 Name "Harpy Sisters"
 Notes "<職業Exp 10>\r\n<逃走レベル 33>\r\n<種族:鳥>\r\n<誘惑時使用スキル:3574>\r\n<スティールリスト 1,I,23,4>\r\n<スティールリスト 1,I,168,4>\r\n<スティールリスト 2,I,305,2>\r\n<スティールリスト 3,I,168,2>\r\n<拡張命中率 50%>\r\n"
Enemy 1028
 Name "Queen Harpy"
 Notes "<職業Exp 50>\r\n<逃走レベル 99>\r\n<種族:鳥>\r\n<誘惑時使用スキル:3649>\r\n<捕食無効>\r\n<拡張命中率 50%>"
Enemy 1029
 Name "High Slug"
 Notes "<職業Exp 4>\r\n<逃走レベル 33>\r\n<種族:陸棲種>\r\n<誘惑時使用スキル:3512>\r\n<スティールリスト 1,I,13,2>\r\n<スティールリスト 1,A,1146,8>\r\n<スティールリスト 2,I,309,2>\r\n<スティールリスト 3,I,165,2>\r\n<スティールリスト 4,A,1815,8>\r\n"
Enemy 1030
 Name "Slug Nun"
 Notes "<職業Exp 4>\r\n<逃走レベル 33>\r\n<種族:陸棲種>\r\n<誘惑時使用スキル:3661>\r\n<スティールリスト 1,I,13,2>\r\n<スティールリスト 1,A,1033,8>\r\n<スティールリスト 2,I,309,2>\r\n<スティールリスト 3,I,165,2>\r\n<スティールリスト 4,A,1816,8>\r\n"
Enemy 1031
 Name "Sluggy Stars"
 Notes "<職業Exp 42>\r\n<逃走レベル 99>\r\n<種族:陸棲種>\r\n<誘惑時使用スキル:3658>\r\n"
Enemy 1032
 Name "Jack O Lantern"
 Notes "<職業Exp 4>\r\n<逃走レベル 33>\r\n<種族:妖精>\r\n<誘惑時使用スキル:4140>\r\n<スティールリスト 1,I,447,2>\r\n<スティールリスト 1,A,247,8>\r\n<スティールリスト 2,I,435,2>\r\n<スティールリスト 3,I,169,2>\r\n<スティールリスト 4,A,1817,8>\r\n<拡張命中率 50%>\r\n<拡張魔法反射率 100%>\r\n"
Enemy 1033
 Name "Roper Girl"
 Notes "<職業Exp 4>\r\n<逃走レベル 33>\r\n<種族:陸棲種>\r\n<誘惑時使用スキル:3614>\r\n<スティールリスト 1,I,1,2>\r\n<スティールリスト 1,A,1062,8>\r\n<スティールリスト 2,I,312,2>\r\n<スティールリスト 3,I,161,2>\r\n\r\n"
Enemy 1034
 Name "Meda"
 Notes "<職業Exp 4>\r\n<逃走レベル 33>\r\n<種族:虫>\r\n<誘惑時使用スキル:3614>\r\n<スティールリスト 1,I,14,2>\r\n<スティールリスト 1,I,11,4>\r\n<スティールリスト 2,I,432,2>\r\n<スティールリスト 3,I,59,2>\r\n<拡張命中率 50%>\r\n"
Enemy 1035
 Name "Candle Girl"
 Notes "<職業Exp 4>\r\n<逃走レベル 33>\r\n<種族:ゴースト>\r\n<誘惑時使用スキル:3679>\r\n<スティールリスト 1,I,1,2>\r\n<スティールリスト 1,I,51,4>\r\n<スティールリスト 2,I,338,2>\r\n<スティールリスト 3,I,51,2>\r\n"
Enemy 1036
 Name "Eater"
 Notes "<職業Exp 4>\r\n<逃走レベル 33>\r\n<種族:アポトーシス>\r\n<誘惑時使用スキル:3685>\r\n<スティールリスト 1,I,1,2>\r\n<スティールリスト 1,A,1114,8>\r\n<スティールリスト 3,I,172,2>\r\n"
Enemy 1037
 Name "Riot"
 Notes "<職業Exp 4>\r\n<逃走レベル 33>\r\n<種族:アポトーシス>\r\n<誘惑時使用スキル:3535>\r\n<スティールリスト 1,I,7,2>\r\n<スティールリスト 1,A,1018,8>\r\n<スティールリスト 3,I,166,2>\r\n<拡張命中率 50%>\r\n"
Enemy 1038
 Name "Luxuru"
 Notes "<職業Exp 4>\r\n<逃走レベル 33>\r\n<種族:アポトーシス>\r\n<誘惑時使用スキル:3496>\r\n<スティールリスト 1,I,11,2>\r\n<スティールリスト 1,I,79,4>\r\n<スティールリスト 3,I,166,2>\r\n<拡張命中率 100%>\r\n<拡張物理反射率 100%>\r\n"
Enemy 1039
 Name "Dark Elf Swordsman"
 Notes "<職業Exp 4>\r\n<逃走レベル 33>\r\n<種族:エルフ>\r\n<誘惑時使用スキル:3706>\r\n<スティールリスト 1,I,1,2>\r\n<スティールリスト 1,A,1013,8>\r\n<スティールリスト 2,I,343,2>\r\n<スティールリスト 3,I,170,2>\r\n<スティールリスト 4,A,1818,8>\r\n"
Enemy 1040
 Name "Dark Elf Mage"
 Notes "<職業Exp 4>\r\n<逃走レベル 33>\r\n<種族:エルフ>\r\n<誘惑時使用スキル:3614>\r\n<スティールリスト 1,I,15,2>\r\n<スティールリスト 1,A,1101,8>\r\n<スティールリスト 2,I,331,2>\r\n<スティールリスト 3,I,170,2>\r\n<スティールリスト 4,A,1819,8>\r\n"
Enemy 1041
 Name "Fairy"
 Notes "<職業Exp 4>\r\n<逃走レベル 33>\r\n<種族:妖精>\r\n<誘惑時使用スキル:3716>\r\n<スティールリスト 1,I,1,1>\r\n<スティールリスト 1,A,1008,8>\r\n<スティールリスト 2,I,434,2>\r\n<スティールリスト 3,I,169,2>\r\n<スティールリスト 4,A,1820,8>\r\n<拡張命中率 50%>\r\n<拡張魔法反射率 100%>"
Enemy 1042
 Name "Mini Crab Girl"
 Notes "<職業Exp 4>\r\n<逃走レベル 33>\r\n<種族:海棲種>\r\n<誘惑時使用スキル:3719>\r\n<スティールリスト 1,I,1,2>\r\n<スティールリスト 1,I,71,4>\r\n<スティールリスト 2,I,335,2>\r\n<スティールリスト 3,I,171,2>\r\n\r\n"
Enemy 1043
 Name "Catfish Girl"
 Notes "<職業Exp 4>\r\n<逃走レベル 33>\r\n<種族:人魚>\r\n<誘惑時使用スキル:3511>\r\n<スティールリスト 1,I,7,2>\r\n<スティールリスト 1,I,59,4>\r\n<スティールリスト 2,I,328,2>\r\n<スティールリスト 3,I,165,2>\r\n\r\n"
Enemy 1044
 Name "Rafflesia Girl"
 Notes "<職業Exp 4>\r\n<逃走レベル 33>\r\n<種族:植物>\r\n<誘惑時使用スキル:3726>\r\n<スティールリスト 1,I,1,2>\r\n<スティールリスト 1,A,1722,8>\r\n<スティールリスト 2,I,321,2>\r\n<スティールリスト 3,I,163,2>\r\n"
Enemy 1045
 Name "Centaur"
 Notes "<職業Exp 4>\r\n<逃走レベル 33>\r\n<種族:魔獣>\r\n<誘惑時使用スキル:3735>\r\n<スティールリスト 1,I,173,2>\r\n<スティールリスト 1,A,1731,8>\r\n<スティールリスト 2,I,310,2>\r\n<スティールリスト 3,I,173,2>\r\n<拡張命中率 100%>\r\n"
Enemy 1046
 Name "Kitsune"
 Notes "<職業Exp 4>\r\n<逃走レベル 33>\r\n<種族:妖狐>\r\n<誘惑時使用スキル:3740>\r\n<スティールリスト 1,I,174,2>\r\n<スティールリスト 1,I,67,4>\r\n<スティールリスト 2,I,370,2>\r\n<スティールリスト 3,I,174,2>\r\n<スティールリスト 4,A,1821,8>\r\n"
Enemy 1047
 Name "Kamuro"
 Notes "<職業Exp 4>\r\n<逃走レベル 33>\r\n<種族:妖狐>\r\n<誘惑時使用スキル:3740>\r\n<スティールリスト 1,I,1,2>\r\n<スティールリスト 1,A,1062,8>\r\n<スティールリスト 2,I,333,2>\r\n<スティールリスト 3,I,174,2>\r\n<スティールリスト 4,A,1822,8>\r\n"
Enemy 1048
 Name "Spider Girl"
 Notes "<職業Exp 10>\r\n<逃走レベル 33>\r\n<種族:虫>\r\n<誘惑時使用スキル:3748>\r\n<スティールリスト 1,I,13,2>\r\n<スティールリスト 1,A,167,8>\r\n<スティールリスト 2,I,432,2>\r\n<スティールリスト 3,I,175,2>\r\n"
Enemy 1049
 Name "Mimic"
 Notes "<職業Exp 30>\r\n<逃走レベル 33>\r\n<種族:ゴースト>\r\n<誘惑時使用スキル:3655>\r\n<スティールリスト 1,I,11,2>\r\n<スティールリスト 1,I,4,32>\r\n<スティールリスト 2,I,359,2>\r\n<スティールリスト 3,I,161,2>\r\n<スティールリスト 4,A,1823,8>\r\n"
Enemy 1050
 Name "Nanabi"
 Notes "<職業Exp 50>\r\n<逃走レベル 99>\r\n<種族:妖狐>\r\n<誘惑時使用スキル:3755>\r\n<捕食無効>\r\n<拡張命中率 50%>"
Enemy 1051
 Name "Morrigan"
 Notes "<職業Exp 99>\r\n<逃走レベル 99>\r\n<種族:淫魔>\r\n<誘惑時使用スキル:3765>\r\n<スティールリスト 4,A,1824,8>\r\n<捕食無効>\r\n<拡張命中率 50%>"
Enemy 1052
 Name "Sea Cucumber Girl"
 Notes "<職業Exp 5>\r\n<逃走レベル 33>\r\n<種族:海棲種>\r\n<誘惑時使用スキル:3495>\r\n<スティールリスト 1,I,2,2>\r\n<スティールリスト 1,I,71,4>\r\n<スティールリスト 2,I,322,2>\r\n<スティールリスト 3,I,171,2>\r\n\r\n"
Enemy 1053
 Name "Shellfish Girl"
 Notes "<職業Exp 5>\r\n<逃走レベル 33>\r\n<種族:海棲種>\r\n<誘惑時使用スキル:3778>\r\n<スティールリスト 1,I,2,2>\r\n<スティールリスト 1,I,27,32>\r\n<スティールリスト 2,I,389,2>\r\n<スティールリスト 3,I,176,3>\r\n\r\n"
Enemy 1054
 Name "Crab Girl"
 Notes "<職業Exp 5>\r\n<逃走レベル 33>\r\n<種族:海棲種>\r\n<誘惑時使用スキル:3786>\r\n<スティールリスト 1,I,17,2>\r\n<スティールリスト 1,A,1559,8>\r\n<スティールリスト 2,I,326,2>\r\n<スティールリスト 3,I,171,2>\r\n\r\n"
Enemy 1055
 Name "Slime Bess"
 Notes "<職業Exp 5>\r\n<逃走レベル 33>\r\n<種族:スライム>\r\n<誘惑時使用スキル:3793>\r\n<スティールリスト 1,I,2,2>\r\n<スティールリスト 1,A,1376,8>\r\n<スティールリスト 2,I,329,2>\r\n<スティールリスト 3,I,177,3>\r\n\r\n"
Enemy 1056
 Name "Watermelon Girl"
 Notes "<職業Exp 5>\r\n<逃走レベル 33>\r\n<種族:植物>\r\n<誘惑時使用スキル:3800>\r\n<スティールリスト 1,I,163,2>\r\n<スティールリスト 1,W,17,8>\r\n<スティールリスト 2,I,304,2>\r\n<スティールリスト 3,I,163,2>\r\n\r\n"
Enemy 1057
 Name "Pitcher Plant Girl"
 Notes "<職業Exp 5>\r\n<逃走レベル 33>\r\n<種族:植物>\r\n<誘惑時使用スキル:3685>\r\n<スティールリスト 1,I,2,2>\r\n<スティールリスト 1,A,1577,8>\r\n<スティールリスト 2,I,337,2>\r\n<スティールリスト 3,I,163,2>\r\n\r\n"
Enemy 1058
 Name "Lamia"
 Notes "<職業Exp 12>\r\n<逃走レベル 33>\r\n<種族:ラミア>\r\n<誘惑時使用スキル:3802>\r\n<スティールリスト 1,I,16,2>\r\n<スティールリスト 1,A,1382,8>\r\n<スティールリスト 2,I,376,2>\r\n<スティールリスト 3,I,178,3>\r\n\r\n"
Enemy 1059
 Name "Seaweed Girl"
 Notes "<職業Exp 5>\r\n<逃走レベル 33>\r\n<種族:植物>\r\n<誘惑時使用スキル:3814>\r\n<スティールリスト 1,I,2,2>\r\n<スティールリスト 1,A,1143,8>\r\n<スティールリスト 2,I,335,2>\r\n<スティールリスト 3,I,71,2>\r\n\r\n"
Enemy 1060
 Name "Jellyfish Girl"
 Notes "<職業Exp 5>\r\n<逃走レベル 33>\r\n<種族:海棲種>\r\n<誘惑時使用スキル:3614>\r\n<スティールリスト 1,I,17,2>\r\n<スティールリスト 1,A,1115,8>\r\n<スティールリスト 2,I,322,2>\r\n<スティールリスト 3,I,179,3>\r\n\r\n"
Enemy 1061
 Name "Sea Anemone Girl"
 Notes "<職業Exp 12>\r\n<逃走レベル 33>\r\n<種族:海棲種>\r\n<誘惑時使用スキル:3614>\r\n<スティールリスト 1,I,13,2>\r\n<スティールリスト 1,A,1549,8>\r\n<スティールリスト 2,I,322,2>\r\n<スティールリスト 3,I,179,3>\r\n\r\n"
Enemy 1062
 Name "Anglerfish Girl"
 Notes "<職業Exp 5>\r\n<逃走レベル 33>\r\n<種族:人魚>\r\n<誘惑時使用スキル:3494>\r\n<スティールリスト 1,I,14,2>\r\n<スティールリスト 1,W,416,8>\r\n<スティールリスト 2,I,327,2>\r\n<スティールリスト 3,I,71,2>\r\n"
Enemy 1063
 Name "Meia"
 Notes "<職業Exp 44>\r\n<逃走レベル 99>\r\n<種族:人魚>\r\n<誘惑時使用スキル:3843>\r\n"
Enemy 1064
 Name "Page 17"
 Notes "<職業Exp 5>\r\n<逃走レベル 33>\r\n<種族:ゴースト>\r\n<誘惑時使用スキル:3846>\r\n<スティールリスト 1,I,17,2>\r\n<スティールリスト 1,A,1008,8>\r\n<スティールリスト 2,I,314,2>\r\n<スティールリスト 3,I,180,3>\r\n<拡張命中率 50%>\r\n"
Enemy 1065
 Name "Page 257"
 Notes "<職業Exp 5>\r\n<逃走レベル 33>\r\n<種族:ゴースト>\r\n<誘惑時使用スキル:4140>\r\n<スティールリスト 1,I,15,2>\r\n<スティールリスト 1,A,1553,8>\r\n<スティールリスト 2,I,418,2>\r\n<スティールリスト 3,I,180,3>\r\n<スティールリスト 4,A,1825,8>\r\n\r\n"
Enemy 1066
 Name "Page 65537"
 Notes "<職業Exp 45>\r\n<逃走レベル 99>\r\n<種族:ゴースト>\r\n<誘惑時使用スキル:3614>\r\n<スティールリスト 4,A,1826,8>\r\n<捕食無効>"
Enemy 1067
 Name "Sister Lamia"
 Notes "<職業Exp 5>\r\n<逃走レベル 33>\r\n<種族:ラミア>\r\n<誘惑時使用スキル:3869>\r\n<スティールリスト 1,I,19,2>\r\n<スティールリスト 1,W,65,8>\r\n<スティールリスト 2,I,317,2>\r\n<スティールリスト 3,I,178,3>\r\n"
Enemy 1068
 Name "Succubus Nun"
 Notes "<職業Exp 5>\r\n<逃走レベル 33>\r\n<種族:淫魔>\r\n<誘惑時使用スキル:3873>\r\n<スティールリスト 1,I,4,4>\r\n<スティールリスト 1,A,1316,8>\r\n<スティールリスト 2,I,317,2>\r\n<スティールリスト 3,I,181,3>\r\n<スティールリスト 4,A,1827,8>\r\n\r\n"
Enemy 1069
 Name "Anteater Girl"
 Notes "<職業Exp 5>\r\n<逃走レベル 33>\r\n<種族:魔獣>\r\n<誘惑時使用スキル:3878>\r\n<スティールリスト 1,I,2,2>\r\n<スティールリスト 1,W,307,8>\r\n<スティールリスト 2,I,336,2>\r\n<スティールリスト 3,I,182,3>\r\n<スティールリスト 4,A,1828,8>\r\n<拡張命中率 50%>\r\n"
Enemy 1070
 Name "Grizzly Bear Girl"
 Notes "<職業Exp 5>\r\n<逃走レベル 33>\r\n<種族:魔獣>\r\n<誘惑時使用スキル:3535>\r\n<スティールリスト 1,I,7,2>\r\n<スティールリスト 1,A,1379,8>\r\n<スティールリスト 2,I,329,2>\r\n<スティールリスト 3,I,182,3>\r\n<拡張命中率 50%>\r\n"
Enemy 1071
 Name "Experiment XX-7"
 Notes "<職業Exp 5>\r\n<逃走レベル 33>\r\n<種族:ロイド>\r\n<誘惑時使用スキル:3892>\r\n<スティールリスト 1,I,7,2>\r\n<スティールリスト 1,A,1043,8>\r\n<スティールリスト 2,I,339,2>\r\n<スティールリスト 3,I,183,3>\r\n<拡張命中率 100%>\r\n<拡張物理反射率 100%>\r\n"
Enemy 1072
 Name "Little Bug"
 Notes "<職業Exp 5>\r\n<逃走レベル 33>\r\n<種族:キメラ>\r\n<誘惑時使用スキル:3896>\r\n<スティールリスト 1,I,2,2>\r\n<スティールリスト 1,I,30,32>\r\n<スティールリスト 2,I,301,2>\r\n<スティールリスト 3,I,184,3>\r\n<拡張命中率 50%>\r\n"
Enemy 1073
 Name "Canceroid"
 Notes "<職業Exp 12>\r\n<逃走レベル 33>\r\n<種族:ロイド>\r\n<誘惑時使用スキル:3493>\r\n<スティールリスト 1,I,20,2>\r\n<スティールリスト 1,A,1023,8>\r\n<スティールリスト 2,I,326,2>\r\n<スティールリスト 3,I,183,3>\r\n<拡張命中率 100%>\r\n<拡張物理反射率 100%>\r\n"
Enemy 1074
 Name "Brynhildr"
 Notes "<職業Exp 50>\r\n<逃走レベル 99>\r\n<種族:ロイド>\r\n<誘惑時使用スキル:4141>\r\n<捕食無効>\r\n<拡張命中率 100%>\r\n<拡張物理反射率 100%>"
Enemy 1075
 Name "Ghost Girl"
 Notes "<職業Exp 5>\r\n<逃走レベル 33>\r\n<種族:ゴースト>\r\n<誘惑時使用スキル:3913>\r\n<スティールリスト 1,I,4,4>\r\n<スティールリスト 1,A,76,16>\r\n<スティールリスト 2,I,311,2>\r\n<スティールリスト 3,I,185,3>\r\n<スティールリスト 4,A,1829,8>\r\n\r\n"
Enemy 1076
 Name "Cursed Doll"
 Notes "<職業Exp 5>\r\n<逃走レベル 33>\r\n<種族:ドール>\r\n<誘惑時使用スキル:3920>\r\n<スティールリスト 1,I,18,2>\r\n<スティールリスト 1,W,451,16>\r\n<スティールリスト 2,I,435,2>\r\n<スティールリスト 3,I,185,3>\r\n<スティールリスト 4,A,1830,8>\r\n"
Enemy 1077
 Name "Zombie Swordsman"
 Notes "<職業Exp 5>\r\n<逃走レベル 33>\r\n<種族:ゾンビ>\r\n<誘惑時使用スキル:3933>\r\n<スティールリスト 1,I,2,2>\r\n<スティールリスト 1,A,7,8>\r\n<スティールリスト 2,I,432,2>\r\n<スティールリスト 3,I,186,3>\r\n<スティールリスト 4,A,1831,8>\r\n<オートステート 19>\r\n"
Enemy 1078
 Name "Zombie Girls"
 Notes "<職業Exp 5>\r\n<逃走レベル 33>\r\n<種族:ゾンビ>\r\n<誘惑時使用スキル:3933>\r\n<スティールリスト 1,I,16,2>\r\n<スティールリスト 1,A,1557,8>\r\n<スティールリスト 2,I,432,2>\r\n<スティールリスト 3,I,186,3>\r\n<スティールリスト 4,A,1832,8>\r\n<オートステート 19>\r\n"
Enemy 1079
 Name "Zombie Girls"
 Notes "<職業Exp 5>\r\n<逃走レベル 33>\r\n<種族:ゾンビ>\r\n<誘惑時使用スキル:3933>\r\n<スティールリスト 1,I,13,2>\r\n<スティールリスト 1,A,1168,8>\r\n<スティールリスト 2,I,432,2>\r\n<スティールリスト 3,I,186,3>\r\n<スティールリスト 4,A,1833,8>\r\n<オートステート 19>\r\n"
Enemy 1080
 Name "Zombie Girls"
 Notes "<職業Exp 5>\r\n<逃走レベル 33>\r\n<種族:ゾンビ>\r\n<誘惑時使用スキル:3933>\r\n<スティールリスト 1,I,17,2>\r\n<スティールリスト 1,A,1003,8>\r\n<スティールリスト 2,I,432,2>\r\n<スティールリスト 3,I,186,3>\r\n<スティールリスト 4,A,1834,8>\r\n<オートステート 19>\r\n"
Enemy 1081
 Name "Zombie Girls"
 Notes "<職業Exp 5>\r\n<逃走レベル 33>\r\n<種族:ゾンビ>\r\n<誘惑時使用スキル:3933>\r\n<スティールリスト 1,I,4,4>\r\n<スティールリスト 1,A,1573,8>\r\n<スティールリスト 2,I,432,2>\r\n<スティールリスト 3,I,186,3>\r\n<スティールリスト 4,A,1835,8>\r\n<オートステート 19>\r\n"
Enemy 1082
 Name "Frederika"
 Notes "<職業Exp 25>\r\n<逃走レベル 99>\r\n<種族:ゾンビ>\r\n<誘惑時使用スキル:3942>\r\n<スティールリスト 4,A,1836,8>\r\n<オートステート 19>\r\n<捕食無効>\r\n"
Enemy 1083
 Name "Chrome"
 Notes "<職業Exp 25>\r\n<逃走レベル 99>\r\n<種族:淫魔>\r\n<誘惑時使用スキル:4019>\r\n<スティールリスト 4,A,1837,8>\r\n\r\n"
Enemy 1084
 Name "Elf"
 Notes "<職業Exp 5>\r\n<逃走レベル 33>\r\n<種族:エルフ>\r\n<誘惑時使用スキル:3962>\r\n<スティールリスト 1,I,4,4>\r\n<スティールリスト 1,A,74,8>\r\n<スティールリスト 2,I,311,2>\r\n<スティールリスト 3,I,187,3>\r\n<スティールリスト 4,A,1838,8>\r\n<拡張命中率 100%>\r\n"
Enemy 1085
 Name "Brownies"
 Notes "<職業Exp 5>\r\n<逃走レベル 33>\r\n<種族:妖精>\r\n<誘惑時使用スキル:3970>\r\n<スティールリスト 1,I,446,2>\r\n<スティールリスト 1,A,1373,8>\r\n<スティールリスト 2,I,304,2>\r\n<スティールリスト 3,I,188,3>\r\n<スティールリスト 4,A,1839,8>\r\n"
Enemy 1086
 Name "Twin Fairies"
 Notes "<職業Exp 5>\r\n<逃走レベル 33>\r\n<種族:妖精>\r\n<誘惑時使用スキル:3972>\r\n<スティールリスト 1,I,447,2>\r\n<スティールリスト 1,A,1008,8>\r\n<スティールリスト 2,I,301,2>\r\n<スティールリスト 3,I,188,3>\r\n<スティールリスト 4,A,1840,8>\r\n<拡張命中率 50%>\r\n<拡張魔法反射率 100%>"
Enemy 1087
 Name "Fairies"
 Notes "<職業Exp 5>\r\n<逃走レベル 33>\r\n<種族:妖精>\r\n<誘惑時使用スキル:3972>\r\n<スティールリスト 1,I,2,2>\r\n<スティールリスト 1,A,1277,8>\r\n<スティールリスト 2,I,435,2>\r\n<スティールリスト 3,I,188,3>\r\n<スティールリスト 4,A,1841,8>\r\n<拡張命中率 50%>\r\n<拡張魔法反射率 100%>"
Enemy 1088
 Name "Fairies"
 Notes "<職業Exp 5>\r\n<逃走レベル 33>\r\n<種族:妖精>\r\n<誘惑時使用スキル:3972>\r\n<スティールリスト 1,I,4,4>\r\n<スティールリスト 1,A,1115,8>\r\n<スティールリスト 2,I,301,2>\r\n<スティールリスト 3,I,188,3>\r\n<スティールリスト 4,A,1841,8>\r\n<拡張命中率 50%>\r\n<拡張魔法反射率 100%>"
Enemy 1089
 Name "Fairies"
 Notes "<職業Exp 5>\r\n<逃走レベル 33>\r\n<種族:妖精>\r\n<誘惑時使用スキル:3972>\r\n<スティールリスト 1,I,11,2>\r\n<スティールリスト 1,W,525,8>\r\n<スティールリスト 2,I,304,2>\r\n<スティールリスト 3,I,188,3>\r\n<スティールリスト 4,A,1841,8>\r\n<拡張命中率 50%>\r\n<拡張魔法反射率 100%>"
Enemy 1090
 Name "Fairies"
 Notes "<職業Exp 5>\r\n<逃走レベル 33>\r\n<種族:妖精>\r\n<誘惑時使用スキル:3972>\r\n<スティールリスト 1,I,19,2>\r\n<スティールリスト 1,W,562,8>\r\n<スティールリスト 2,I,417,2>\r\n<スティールリスト 3,I,64,3>\r\n<スティールリスト 4,A,1841,8>\r\n<拡張命中率 50%>\r\n<拡張魔法反射率 100%>"
Enemy 1091
 Name "Fairies"
 Notes "<職業Exp 5>\r\n<逃走レベル 33>\r\n<種族:妖精>\r\n<誘惑時使用スキル:3972>\r\n<スティールリスト 1,I,18,2>\r\n<スティールリスト 1,I,12,16>\r\n<スティールリスト 2,I,434,2>\r\n<スティールリスト 3,I,188,3>\r\n<スティールリスト 4,A,1841,8>\r\n<拡張命中率 50%>\r\n<拡張魔法反射率 100%>"
Enemy 1092
 Name "Fairies"
 Notes "<職業Exp 5>\r\n<逃走レベル 33>\r\n<種族:妖精>\r\n<誘惑時使用スキル:3972>\r\n<スティールリスト 1,I,2,2>\r\n<スティールリスト 1,W,900,16>\r\n<スティールリスト 2,I,361,2>\r\n<スティールリスト 3,I,188,3>\r\n<スティールリスト 4,A,1841,8>\r\n<拡張命中率 50%>\r\n<拡張魔法反射率 100%>"
Enemy 1093
 Name "Sylph"
 Notes "<職業Exp 47>\r\n<逃走レベル 99>\r\n<種族:妖精>\r\n<誘惑時使用スキル:3986>\r\n<スティールリスト 4,A,1842,8>\r\n<捕食無効>\r\n<拡張命中率 50%>\r\n<拡張魔法反射率 100%>"
Enemy 1095
 Name "Tarantula Girl"
 Notes "<職業Exp 5>\r\n<逃走レベル 33>\r\n<種族:虫>\r\n<誘惑時使用スキル:3994>\r\n<スティールリスト 1,I,17,2>\r\n<スティールリスト 1,A,1394,8>\r\n<スティールリスト 2,I,329,2>\r\n<スティールリスト 3,I,175,2>\r\n\r\n"
Enemy 1096
 Name "Minotaur Girl"
 Notes "<職業Exp 12>\r\n<逃走レベル 33>\r\n<種族:魔獣>\r\n<誘惑時使用スキル:4005>\r\n<スティールリスト 1,I,7,2>\r\n<スティールリスト 1,A,1307,8>\r\n<スティールリスト 2,I,342,2>\r\n<スティールリスト 3,I,189,3>\r\n<スティールリスト 4,A,1843,8>\r\n\r\n"
Enemy 1097
 Name "Bandersnatch Girl"
 Notes "<職業Exp 12>\r\n<逃走レベル 33>\r\n<種族:ドール>\r\n<誘惑時使用スキル:3492>\r\n<スティールリスト 1,I,2,2>\r\n<スティールリスト 1,A,1301,8>\r\n<スティールリスト 2,I,312,2>\r\n<スティールリスト 3,I,68,3>\r\n\r\n"
Enemy 1098
 Name "Eva"
 Notes "<職業Exp 47>\r\n<逃走レベル 99>\r\n<種族:淫魔>\r\n<誘惑時使用スキル:4019>\r\n<スティールリスト 4,A,1844,8>\r\n<拡張命中率 50%>"
Enemy 1099
 Name "Sables"
 Notes "<職業Exp 5>\r\n<逃走レベル 33>\r\n<種族:スキュラ>\r\n<誘惑時使用スキル:3878>\r\n<スティールリスト 1,I,2,2>\r\n<スティールリスト 1,A,1121,8>\r\n<スティールリスト 2,I,330,2>\r\n<スティールリスト 3,I,190,3>\r\n\r\n"
Enemy 1100
 Name "Centipede Girl"
 Notes "<職業Exp 5>\r\n<逃走レベル 33>\r\n<種族:虫>\r\n<誘惑時使用スキル:4036>\r\n<スティールリスト 1,I,2,2>\r\n<スティールリスト 1,A,1023,8>\r\n<スティールリスト 2,I,432,2>\r\n<スティールリスト 3,I,68,3>\r\n\r\n"
Enemy 1101
 Name "Scorpion Girl"
 Notes "<職業Exp 5>\r\n<逃走レベル 33>\r\n<種族:虫>\r\n<誘惑時使用スキル:4043>\r\n<スティールリスト 1,I,13,2>\r\n<スティールリスト 1,A,1712,8>\r\n<スティールリスト 2,I,303,2>\r\n<スティールリスト 3,I,60,3>\r\n\r\n"
Enemy 1102
 Name "Cactus Girl"
 Notes "<職業Exp 5>\r\n<逃走レベル 33>\r\n<種族:植物>\r\n<誘惑時使用スキル:4049>\r\n<スティールリスト 1,I,17,2>\r\n<スティールリスト 1,A,1559,8>\r\n<スティールリスト 2,I,316,2>\r\n<スティールリスト 3,I,191,3>\r\n<拡張命中率 50%>\r\n"
Enemy 1103
 Name "Ostritch Girl"
 Notes "<職業Exp 5>\r\n<逃走レベル 33>\r\n<種族:鳥>\r\n<誘惑時使用スキル:4057>\r\n<スティールリスト 1,I,23,2>\r\n<スティールリスト 1,A,40,8>\r\n<スティールリスト 2,I,307,2>\r\n<スティールリスト 3,I,192,3>\r\n<拡張命中率 50%>\r\n"
Enemy 1104
 Name "Lamp Genie"
 Notes "<職業Exp 5>\r\n<逃走レベル 33>\r\n<種族:妖魔>\r\n<誘惑時使用スキル:4066>\r\n<スティールリスト 1,I,4,4>\r\n<スティールリスト 1,W,97,16>\r\n<スティールリスト 2,I,363,2>\r\n<スティールリスト 3,I,52,3>\r\n\r\n"
Enemy 1105
 Name "Mummy Girl"
 Notes "<職業Exp 5>\r\n<逃走レベル 33>\r\n<種族:ゾンビ>\r\n<誘惑時使用スキル:4079>\r\n<スティールリスト 1,I,59,4>\r\n<スティールリスト 1,A,1265,8>\r\n<スティールリスト 2,I,432,2>\r\n<スティールリスト 3,I,186,3>\r\n\r\n"
Enemy 1106
 Name "Cobra Girl"
 Notes "<職業Exp 5>\r\n<逃走レベル 33>\r\n<種族:ラミア>\r\n<誘惑時使用スキル:4089>\r\n<スティールリスト 1,I,13,2>\r\n<スティールリスト 1,A,1334,8>\r\n<スティールリスト 2,I,329,2>\r\n<スティールリスト 3,I,193,3>\r\n\r\n"
Enemy 1107
 Name "Nefertiti Lamias"
 Notes "<職業Exp 12>\r\n<逃走レベル 33>\r\n<種族:ラミア>\r\n<誘惑時使用スキル:4099>\r\n<スティールリスト 1,I,4,2>\r\n<スティールリスト 1,A,1612,8>\r\n<スティールリスト 2,I,419,2>\r\n<スティールリスト 3,I,193,3>\r\n\r\n"
Enemy 1108
 Name "Sphinx"
 Notes "<職業Exp 99>\r\n<逃走レベル 99>\r\n<種族:妖魔>\r\n<誘惑時使用スキル:4114>\r\n<捕食無効>\r\n<拡張命中率 50%>"
Enemy 1109
 Name "Sara"
 Notes "<職業Exp 47>\r\n<逃走レベル 99>\r\n<種族:淫魔>\r\n<誘惑時使用スキル:4116>\r\n<捕食無効>\r\n<拡張命中率 50%>"
Enemy 1110
 Name "Astaroth"
 Notes "<職業Exp 99>\r\n<逃走レベル 99>\r\n<種族:淫魔>\r\n<誘惑時使用スキル:4125>\r\n<スティールリスト 4,A,1845,8>\r\n<捕食無効>\r\n<拡張命中率 50%>"
Enemy 1111
 Name "Crocodile Girl"
 Notes "<職業Exp 5>\r\n<逃走レベル 33>\r\n<種族:陸棲種>\r\n<誘惑時使用スキル:4141>\r\n<スティールリスト 1,I,7,2>\r\n<スティールリスト 1,A,1083,8>\r\n<スティールリスト 2,I,330,2>\r\n<スティールリスト 3,I,194,3>\r\n\r\n\r\n\r\n\r\n\r\n"
Enemy 1112
 Name "Saki"
 Notes "<職業Exp 47>\r\n<逃走レベル 99>\r\n<種族:淫魔>\r\n<誘惑時使用スキル:4136>\r\n<スティールリスト 4,A,1846,8>\r\n<捕食無効>\r\n"
Enemy 1113
 Name "Devil Fighter"
 Notes "<職業Exp 5>\r\n<逃走レベル 33>\r\n<種族:妖魔>\r\n<誘惑時使用スキル:4141>\r\n<スティールリスト 1,I,2,2>\r\n<スティールリスト 1,A,1286,8>\r\n<スティールリスト 2,I,320,2>\r\n<スティールリスト 3,I,52,3>\r\n<スティールリスト 4,A,1847,8>\r\n\r\n"
Enemy 1114
 Name "Large Spider"
 Notes "<職業Exp 5>\r\n<逃走レベル 33>\r\n<種族:虫>\r\n<誘惑時使用スキル:3747>\r\n<スティールリスト 1,I,17,2>\r\n<スティールリスト 1,A,1013,8>\r\n<スティールリスト 2,I,360,2>\r\n<スティールリスト 3,I,175,2>\r\n\r\n"
Enemy 1115
 Name "Suck Vore"
 Notes "<職業Exp 5>\r\n<逃走レベル 33>\r\n<種族:人間>\r\n<誘惑時使用スキル:4146>\r\n<スティールリスト 1,I,4,4>\r\n<スティールリスト 1,A,1624,8>\r\n<スティールリスト 2,I,343,2>\r\n<スティールリスト 3,I,195,3>\r\n\r\n"
Enemy 1116
 Name "Iron Maiden"
 Notes "<職業Exp 5>\r\n<逃走レベル 33>\r\n<種族:ドール>\r\n<誘惑時使用スキル:3491>\r\n<スティールリスト 1,I,19,2>\r\n<スティールリスト 1,A,1403,8>\r\n<スティールリスト 2,I,432,2>\r\n<スティールリスト 3,I,195,3>\r\n\r\n"
Enemy 1117
 Name "Worm Villager"
 Notes "<職業Exp 12>\r\n<逃走レベル 33>\r\n<種族:人間>\r\n<誘惑時使用スキル:4159>\r\n<スティールリスト 1,I,4,4>\r\n<スティールリスト 1,A,1385,8>\r\n<スティールリスト 2,I,337,2>\r\n<スティールリスト 3,I,195,3>\r\n<スティールリスト 4,A,1848,8>\r\n\r\n"
Enemy 1118
 Name "Ustrel"
 Notes "<職業Exp 5>\r\n<逃走レベル 33>\r\n<種族:スキュラ>\r\n<誘惑時使用スキル:3878>\r\n<スティールリスト 1,I,4,4>\r\n<スティールリスト 1,A,1614,8>\r\n<スティールリスト 2,I,324,2>\r\n<スティールリスト 3,I,190,3>\r\n"
Enemy 1119
 Name "Honey Pot"
 Notes "<職業Exp 30>\r\n<逃走レベル 33>\r\n<種族:ゴースト>\r\n<誘惑時使用スキル:3502>\r\n<スティールリスト 1,I,3,4>\r\n<スティールリスト 1,I,4,32>\r\n<スティールリスト 2,I,436,2>\r\n<スティールリスト 3,I,177,3>\r\n"
Enemy 1120
 Name "Lily"
 Notes "<職業Exp 48>\r\n<逃走レベル 99>\r\n<種族:人間>\r\n<誘惑時使用スキル:4159>\r\n<スティールリスト 4,A,1849,8>\r\n<捕食無効>\r\n<拡張魔法反射率 100%>\r\n"
Enemy 1121
 Name "Oni"
 Notes "<職業Exp 5>\r\n<逃走レベル 33>\r\n<種族:亜人>\r\n<誘惑時使用スキル:4183>\r\n<スティールリスト 1,I,2,2>\r\n<スティールリスト 1,A,1310,8>\r\n<スティールリスト 2,I,332,2>\r\n<スティールリスト 3,I,196,3>\r\n<スティールリスト 4,A,1850,8>\r\n\r\n"
Enemy 1122
 Name "Onahole Girl"
 Notes "<職業Exp 5>\r\n<逃走レベル 33>\r\n<種族:スライム>\r\n<誘惑時使用スキル:4188>\r\n<スティールリスト 1,I,4,4>\r\n<スティールリスト 1,A,1361,8>\r\n<スティールリスト 2,I,422,2>\r\n<スティールリスト 3,I,195,3>\r\n\r\n"
Enemy 1123
 Name "Naccubus"
 Notes "<職業Exp 5>\r\n<逃走レベル 33>\r\n<種族:淫魔>\r\n<誘惑時使用スキル:4196>\r\n<スティールリスト 1,I,2,2>\r\n<スティールリスト 1,A,1346,8>\r\n<スティールリスト 2,I,357,2>\r\n<スティールリスト 3,I,181,3>\r\n<スティールリスト 4,A,1851,8>\r\n\r\n"
Enemy 1124
 Name "Lucia"
 Notes "<職業Exp 48>\r\n<逃走レベル 99>\r\n<種族:人間>\r\n<誘惑時使用スキル:4159>\r\n<捕食無効>\r\n<拡張魔法反射率 100%>\r\n"
Enemy 1125
 Name "Dodomeki"
 Notes "<職業Exp 5>\r\n<逃走レベル 33>\r\n<種族:亜人>\r\n<誘惑時使用スキル:4216>\r\n<スティールリスト 1,I,14,2>\r\n<スティールリスト 1,A,1551,8>\r\n<スティールリスト 2,I,360,2>\r\n<スティールリスト 3,I,196,3>\r\n<スティールリスト 4,A,1852,8>\r\n\r\n"
Enemy 1126
 Name "Lizard Thief"
 Notes "<職業Exp 5>\r\n<逃走レベル 33>\r\n<種族:竜>\r\n<誘惑時使用スキル:4228>\r\n<スティールリスト 1,I,2,2>\r\n<スティールリスト 1,A,1283,8>\r\n<スティールリスト 2,I,340,2>\r\n<スティールリスト 3,I,197,3>\r\n<スティールリスト 4,A,1853,8>\r\n<拡張命中率 50%>"
Enemy 1127
 Name "Lizard Thief"
 Notes "<職業Exp 5>\r\n<逃走レベル 33>\r\n<種族:竜>\r\n<誘惑時使用スキル:4229>\r\n<スティールリスト 1,I,7,2>\r\n<スティールリスト 1,A,1003,8>\r\n<スティールリスト 2,I,343,2>\r\n<スティールリスト 3,I,197,3>\r\n<スティールリスト 4,A,1854,8>\r\n<拡張命中率 50%>"
Enemy 1128
 Name "Lizard Boss"
 Notes "<職業Exp 48>\r\n<逃走レベル 99>\r\n<種族:竜>\r\n<誘惑時使用スキル:4228>\r\n<スティールリスト 4,A,1855,8>\r\n<捕食無効>\r\n<拡張命中率 50%>"
Enemy 1129
 Name "Mirage Girl"
 Notes "<職業Exp 5>\r\n<逃走レベル 33>\r\n<種族:ゴースト>\r\n<誘惑時使用スキル:4233>\r\n<スティールリスト 1,I,4,4>\r\n<スティールリスト 1,A,1319,8>\r\n<スティールリスト 2,I,316,2>\r\n<スティールリスト 3,I,52,3>\r\n<スティールリスト 4,A,1856,8>\r\n\r\n"
Enemy 1130
 Name "Ant Lion Girl"
 Notes "<職業Exp 12>\r\n<逃走レベル 33>\r\n<種族:虫>\r\n<誘惑時使用スキル:3896>\r\n<スティールリスト 1,I,68,4>\r\n<スティールリスト 1,A,1394,8>\r\n<スティールリスト 2,I,432,2>\r\n<スティールリスト 3,I,201,3>\r\n\r\n"
Enemy 1131
 Name "Sandworm"
 Notes "<職業Exp 12>\r\n<逃走レベル 33>\r\n<種族:虫>\r\n<誘惑時使用スキル:3490>\r\n<スティールリスト 1,I,2,2>\r\n<スティールリスト 1,I,26,32>\r\n<スティールリスト 2,I,303,2>\r\n<スティールリスト 3,I,201,3>\r\n\r\n"
Enemy 1132
 Name "Desert Scylla"
 Notes "<職業Exp 5>\r\n<逃走レベル 33>\r\n<種族:スキュラ>\r\n<誘惑時使用スキル:3614>\r\n<スティールリスト 1,I,2,2>\r\n<スティールリスト 1,A,1385,8>\r\n<スティールリスト 2,I,330,2>\r\n<スティールリスト 3,I,202,3>\r\n\r\n"
Enemy 1133
 Name "Gnome"
 Notes "<職業Exp 49>\r\n<逃走レベル 99>\r\n<種族:妖精>\r\n<誘惑時使用スキル:3489>\r\n<スティールリスト 4,A,1857,8>\r\n<捕食無効>"
Enemy 1134
 Name "Vitae"
 Notes "<職業Exp 5>\r\n<逃走レベル 33>\r\n<種族:アポトーシス>\r\n<誘惑時使用スキル:4258>\r\n<スティールリスト 1,I,71,4>\r\n<スティールリスト 1,A,1067,16>\r\n<スティールリスト 3,I,198,3>\r\n\r\n"
Enemy 1135
 Name "Vetala"
 Notes "<職業Exp 5>\r\n<逃走レベル 33>\r\n<種族:アポトーシス>\r\n<誘惑時使用スキル:4261>\r\n<スティールリスト 1,I,17,2>\r\n<スティールリスト 1,A,1150,16>\r\n<スティールリスト 3,I,198,3>\r\n\r\n"
Enemy 1136
 Name "Valto"
 Notes "<職業Exp 5>\r\n<逃走レベル 33>\r\n<種族:アポトーシス>\r\n<誘惑時使用スキル:3892>\r\n<スティールリスト 1,I,60,4>\r\n<スティールリスト 1,A,1565,8>\r\n<スティールリスト 3,I,198,3>\r\n<拡張命中率 100%>\r\n<拡張物理反射率 100%>\r\n"
Enemy 1137
 Name "Shinifa"
 Notes "<職業Exp 5>\r\n<逃走レベル 33>\r\n<種族:アポトーシス>\r\n<誘惑時使用スキル:4275>\r\n<スティールリスト 1,I,4,4>\r\n<スティールリスト 1,A,1112,16>\r\n<スティールリスト 3,I,198,3>\r\n<拡張物理反射率 100%>\r\n"
Enemy 1138
 Name "Shadow Girl"
 Notes "<職業Exp 5>\r\n<逃走レベル 33>\r\n<種族:ゴースト>\r\n<誘惑時使用スキル:4279>\r\n<スティールリスト 1,I,16,2>\r\n<スティールリスト 1,A,1087,16>\r\n<スティールリスト 2,I,321,2>\r\n<スティールリスト 3,I,185,3>\r\n\r\n"
Enemy 1139
 Name "Paintgeist"
 Notes "<職業Exp 5>\r\n<逃走レベル 33>\r\n<種族:ゴースト>\r\n<誘惑時使用スキル:3940>\r\n<スティールリスト 1,I,2,2>\r\n<スティールリスト 1,A,1540,16>\r\n<スティールリスト 2,I,313,2>\r\n<スティールリスト 3,I,185,3>\r\n<スティールリスト 4,A,1858,8>\r\n\r\n"
Enemy 1140
 Name "Chimera Homunculus"
 Notes "<職業Exp 5>\r\n<逃走レベル 33>\r\n<種族:キメラ>\r\n<誘惑時使用スキル:4299>\r\n<スティールリスト 1,I,4,4>\r\n<スティールリスト 1,A,1555,8>\r\n<スティールリスト 2,I,325,2>\r\n<スティールリスト 3,I,199,3>\r\n\r\n"
Enemy 1141
 Name "Neo Iron Maiden"
 Notes "<職業Exp 5>\r\n<逃走レベル 33>\r\n<種族:ドール>\r\n<誘惑時使用スキル:3491>\r\n<スティールリスト 1,I,19,2>\r\n<スティールリスト 1,A,1585,8>\r\n<スティールリスト 2,I,301,2>\r\n<スティールリスト 3,I,199,3>\r\n"
Enemy 1142
 Name "Junk Doll Girl"
 Notes "<職業Exp 12>\r\n<逃走レベル 33>\r\n<種族:ドール>\r\n<誘惑時使用スキル:4313>\r\n<スティールリスト 1,I,23,2>\r\n<スティールリスト 1,A,1268,8>\r\n<スティールリスト 2,I,338,2>\r\n<スティールリスト 3,I,200,3>\r\n"
Enemy 1143
 Name "Adramelech"
 Notes "<職業Exp 99>\r\n<逃走レベル 99>\r\n<種族:アポトーシス>\r\n<誘惑時使用スキル:3614>\r\n<捕食無効>\r\n\r\n"
Enemy 1144
 Name "Alipheese the 16th"
 Notes "<職業Exp 99>\r\n<逃走レベル 99>\r\n<種族:妖魔>\r\n<誘惑時使用スキル:3488>\r\n<スティールリスト 4,A,1953,8>\r\n<捕食無効>\r\n"
Enemy 1145
 Name "Reaper"
 Notes "<職業Exp 99>\r\n<逃走レベル 99>\r\n<種族:ゴースト>\r\n<誘惑時使用スキル:3912>\r\n<スティールリスト 4,A,1954,8>\r\n<捕食無効>\r\n\r\n\r\n"
Enemy 1148
 Name "Imp"
 Notes "<職業Exp 4>\r\n<逃走レベル 33>\r\n<種族:淫魔>\r\n<誘惑時使用スキル:3516>\r\n<スティールリスト 1,I,1,2>\r\n<スティールリスト 1,A,1301,8>\r\n<スティールリスト 2,I,372,2>\r\n<スティールリスト 3,I,162,2>\r\n<スティールリスト 4,A,1804,8>\r\n"
Enemy 1149
 Name "Imp"
 Notes "<職業Exp 4>\r\n<逃走レベル 33>\r\n<種族:淫魔>\r\n<誘惑時使用スキル:3518>\r\n<スティールリスト 1,I,1,2>\r\n<スティールリスト 1,A,1316,8>\r\n<スティールリスト 2,I,301,2>\r\n<スティールリスト 3,I,162,2>\r\n<スティールリスト 4,A,1803,8>\r\n\r\n"
Enemy 1368
 Name "Sonya Mazda"
 Notes "<職業Exp 99>\r\n<逃走レベル 99>\r\n<種族:アポトーシス>\r\n<誘惑時使用スキル:3607>\r\n<スティールリスト 4,A,1924,8>\r\n<捕食無効>\r\n\r\n"
Enemy 1369
 Name "Sonya Mainyu"
 Notes "<職業Exp 99>\r\n<逃走レベル 99>\r\n<種族:アポトーシス>\r\n<誘惑時使用スキル:3607>\r\n<スティールリスト 4,A,1924,8>\r\n<捕食無効>\r\n\r\n"
Enemy 1371
 Name "Micaela"
 Notes "<職業Exp 99>\r\n<逃走レベル 99>\r\n<種族:天使>\r\n<誘惑時使用スキル:4588>\r\n<スティールリスト 4,A,1955,16>\r\n<捕食無効>\r\n<拡張命中率 50%>\r\n<拡張物理反射率 100%>"
Enemy 1372
 Name "Lucifina"
 Notes "<職業Exp 99>\r\n<逃走レベル 99>\r\n<種族:天使>\r\n<誘惑時使用スキル:4588>\r\n<スティールリスト 4,A,1956,16>\r\n<捕食無効>\r\n<拡張命中率 50%>\r\n<拡張魔法反射率 100%>"
